<svg id="Layer_1" data-name="Layer 1" xmlns="http://www.w3.org/2000/svg" viewBox="0 0 412.79982 306.16234">
  <defs>
    <style>
      .cls-1 {
        fill: #848484;
      }

      .cls-1, .cls-2, .cls-3, .cls-4, .cls-5 {
        fill-opacity: 0;
        stroke: red;
        stroke-linecap: round;
        stroke-linejoin: round;
      }

      .cls-1, .cls-2, .cls-5 {
        stroke-width: 0.14173px;
      }

      .cls-2, .cls-3, .cls-4 {
        fill: #c2c2c2;
      }

      .cls-3 {
        stroke-width: 0.34016px;
      }

      .cls-4 {
        stroke-width: 0.02835px;
      }

      .cls-5 {
        fill: #c2c200;
      }
    </style>
  </defs>
  <g>
    <path class="cls-1" d="M391.14613,158.10506v-9.35278" transform="translate(0.00607 0.00538)"/>
    <path class="cls-1" d="M391.14613,158.10506h-7.08478" transform="translate(0.00607 0.00538)"/>
    <path class="cls-1" d="M384.06135,148.75228h7.08478" transform="translate(0.00607 0.00538)"/>
    <path class="cls-1" d="M384.06135,148.75228v9.35278" transform="translate(0.00607 0.00538)"/>
    <path class="cls-1" d="M357.47182,154.66346V179.0426" transform="translate(0.00607 0.00538)"/>
    <path class="cls-1" d="M357.47182,179.0426H337.90948" transform="translate(0.00607 0.00538)"/>
    <path class="cls-1" d="M337.90948,179.0426V154.66346" transform="translate(0.00607 0.00538)"/>
    <path class="cls-1" d="M337.90948,154.66346h19.56234" transform="translate(0.00607 0.00538)"/>
  </g>
  <g>
    <circle class="cls-2" cx="58.57675" cy="118.20166" r="4.81888"/>
    <circle class="cls-2" cx="58.57675" cy="172.20151" r="4.81888"/>
    <circle class="cls-2" cx="400.21554" cy="226.51601" r="3.1181"/>
    <circle class="cls-2" cx="348.37568" cy="196.63609" r="3.1181"/>
    <circle class="cls-2" cx="363.26667" cy="222.78569" r="4.81888"/>
    <circle class="cls-2" cx="246.45132" cy="195.8261" r="4.81888"/>
    <circle class="cls-2" cx="273.45125" cy="81.0764" r="4.81888"/>
    <circle class="cls-2" cx="114.46991" cy="71.88952" r="4.81888"/>
    <circle class="cls-2" cx="110.32632" cy="168.82617" r="4.81888"/>
    <path class="cls-2" d="M139.91,238.34884l2.21039,5.64478" transform="translate(0.00607 0.00538)"/>
    <path class="cls-2" d="M139.91362,238.35244a2.83466,2.83466,0,0,0-2.74968-2.147" transform="translate(0.00607 0.00538)"/>
    <path class="cls-2" d="M142.12473,244.00082a3.00657,3.00657,0,0,0,4.25159,0" transform="translate(0.00607 0.00538)"/>
    <path class="cls-2" d="M148.586,238.34884l-2.21039,5.64478" transform="translate(0.00607 0.00538)"/>
    <path class="cls-2" d="M151.3371,236.20541a2.83462,2.83462,0,0,0-2.75039,2.147" transform="translate(0.00607 0.00538)"/>
    <path class="cls-2" d="M135.0378,234.07925a2.126,2.126,0,0,0,2.1258,2.12616h.00034" transform="translate(0.00607 0.00538)"/>
    <path class="cls-2" d="M151.3371,236.20541a2.126,2.126,0,0,0,2.12616-2.12581v-.00035" transform="translate(0.00607 0.00538)"/>
    <path class="cls-2" d="M132.91164,234.07925V209.98091" transform="translate(0.00607 0.00538)"/>
    <path class="cls-2" d="M155.58437,234.07925H132.91164" transform="translate(0.00607 0.00538)"/>
    <path class="cls-2" d="M155.58437,209.98091v24.09834" transform="translate(0.00607 0.00538)"/>
    <path class="cls-2" d="M132.91164,209.98091h22.67273" transform="translate(0.00607 0.00538)"/>
    <path class="cls-2" d="M340.01187,135.45392V41.20617" transform="translate(0.00607 0.00538)"/>
    <path class="cls-2" d="M398.12291,135.45392h-58.111" transform="translate(0.00607 0.00538)"/>
    <path class="cls-2" d="M398.12291,41.20617v94.24775" transform="translate(0.00607 0.00538)"/>
    <path class="cls-2" d="M340.01187,41.20617h58.111" transform="translate(0.00607 0.00538)"/>
  </g>
  <g>
    <path class="cls-3" d="M412.62367,195.76815V173.801" transform="translate(0.00607 0.00538)"/>
    <path class="cls-3" d="M378.611,195.76815h34.0127" transform="translate(0.00607 0.00538)"/>
    <path class="cls-3" d="M378.611,173.801v21.96714" transform="translate(0.00607 0.00538)"/>
    <path class="cls-3" d="M412.62367,173.801H378.611" transform="translate(0.00607 0.00538)"/>
  </g>
  <g>
    <path class="cls-4" d="M22.35824,116.53957a2.126,2.126,0,0,0-2.12581-2.12615h-.0002" transform="translate(0.00607 0.00538)"/>
    <path class="cls-4" d="M22.35824,117.24805a2.126,2.126,0,0,0,2.12582,2.12615h.00012" transform="translate(0.00607 0.00538)"/>
    <path class="cls-4" d="M38.65734,119.3742a2.126,2.126,0,0,0,2.126-2.126v-.0002" transform="translate(0.00607 0.00538)"/>
    <path class="cls-4" d="M42.90936,114.41342a2.126,2.126,0,0,0-2.126,2.126v.0002" transform="translate(0.00607 0.00538)"/>
    <path class="cls-4" d="M40.78335,72.60313a2.126,2.126,0,0,0,2.126,2.12544" transform="translate(0.00607 0.00538)"/>
    <path class="cls-4" d="M40.78335,71.89422a2.126,2.126,0,0,0-2.12595-2.126h-.00006" transform="translate(0.00607 0.00538)"/>
    <path class="cls-4" d="M24.48418,69.76821a2.126,2.126,0,0,0-2.12594,2.126" transform="translate(0.00607 0.00538)"/>
    <path class="cls-4" d="M20.23223,74.72857a2.126,2.126,0,0,0,2.126-2.12544" transform="translate(0.00607 0.00538)"/>
    <path class="cls-4" d="M20.23194,114.40837H11.72157" transform="translate(0.00607 0.00538)"/>
    <path class="cls-4" d="M22.35594,117.24517v-.7056" transform="translate(0.00607 0.00538)"/>
    <path class="cls-4" d="M42.90468,114.40837h8.50318" transform="translate(0.00607 0.00538)"/>
    <path class="cls-4" d="M40.78069,117.24517v-.7056" transform="translate(0.00607 0.00538)"/>
    <path class="cls-4" d="M24.47993,119.36916H38.65669" transform="translate(0.00607 0.00538)"/>
    <path class="cls-4" d="M42.90468,74.72208h8.50318" transform="translate(0.00607 0.00538)"/>
    <path class="cls-4" d="M40.78069,71.89249v.7056" transform="translate(0.00607 0.00538)"/>
    <path class="cls-4" d="M20.23194,74.72208H11.72157" transform="translate(0.00607 0.00538)"/>
    <path class="cls-4" d="M22.35594,71.89249v.7056" transform="translate(0.00607 0.00538)"/>
    <path class="cls-4" d="M24.47993,69.7613H38.65669" transform="translate(0.00607 0.00538)"/>
    <path class="cls-4" d="M51.40786,74.72208v39.68629" transform="translate(0.00607 0.00538)"/>
    <path class="cls-4" d="M11.72157,74.72208v39.68629" transform="translate(0.00607 0.00538)"/>
    <path class="cls-4" d="M22.35824,224.53927a2.126,2.126,0,0,0-2.1258-2.12616h-.00021" transform="translate(0.00607 0.00538)"/>
    <path class="cls-4" d="M22.35824,225.24775a2.126,2.126,0,0,0,2.12582,2.12615h.00012" transform="translate(0.00607 0.00538)"/>
    <path class="cls-4" d="M38.65734,227.3739a2.126,2.126,0,0,0,2.126-2.12595v-.0002" transform="translate(0.00607 0.00538)"/>
    <path class="cls-4" d="M42.90936,222.41311a2.126,2.126,0,0,0-2.126,2.126v.00021" transform="translate(0.00607 0.00538)"/>
    <path class="cls-4" d="M40.78335,180.60283a2.126,2.126,0,0,0,2.126,2.12544" transform="translate(0.00607 0.00538)"/>
    <path class="cls-4" d="M40.78335,179.89363a2.126,2.126,0,0,0-2.126-2.12543" transform="translate(0.00607 0.00538)"/>
    <path class="cls-4" d="M24.48418,177.7682a2.126,2.126,0,0,0-2.12594,2.12543" transform="translate(0.00607 0.00538)"/>
    <path class="cls-4" d="M20.23223,182.72827a2.126,2.126,0,0,0,2.126-2.12544" transform="translate(0.00607 0.00538)"/>
    <path class="cls-4" d="M20.23194,222.40808H11.72157" transform="translate(0.00607 0.00538)"/>
    <path class="cls-4" d="M22.35594,225.24487v-.7056" transform="translate(0.00607 0.00538)"/>
    <path class="cls-4" d="M42.90468,222.40808h8.50318" transform="translate(0.00607 0.00538)"/>
    <path class="cls-4" d="M40.78069,225.24487v-.7056" transform="translate(0.00607 0.00538)"/>
    <path class="cls-4" d="M24.47993,227.36887H38.65669" transform="translate(0.00607 0.00538)"/>
    <path class="cls-4" d="M42.90468,182.72179h8.50318" transform="translate(0.00607 0.00538)"/>
    <path class="cls-4" d="M40.78069,179.8922v.70559" transform="translate(0.00607 0.00538)"/>
    <path class="cls-4" d="M20.23194,182.72179H11.72157" transform="translate(0.00607 0.00538)"/>
    <path class="cls-4" d="M22.35594,179.8922v.70559" transform="translate(0.00607 0.00538)"/>
    <path class="cls-4" d="M24.47993,177.761H38.65669" transform="translate(0.00607 0.00538)"/>
    <path class="cls-4" d="M51.40786,182.72179v39.68629" transform="translate(0.00607 0.00538)"/>
    <path class="cls-4" d="M11.72157,182.72179v39.68629" transform="translate(0.00607 0.00538)"/>
    <path class="cls-4" d="M197.85762,251.5392a2.126,2.126,0,0,0-2.1258-2.12616h-.00036" transform="translate(0.00607 0.00538)"/>
    <path class="cls-4" d="M197.85762,252.24767a2.126,2.126,0,0,0,2.12581,2.12616h.00034" transform="translate(0.00607 0.00538)"/>
    <path class="cls-4" d="M214.15693,254.37383a2.126,2.126,0,0,0,2.12616-2.1258v-.00036" transform="translate(0.00607 0.00538)"/>
    <path class="cls-4" d="M218.40852,249.413a2.126,2.126,0,0,0-2.12543,2.12616" transform="translate(0.00607 0.00538)"/>
    <path class="cls-4" d="M216.28309,207.60275a2.126,2.126,0,0,0,2.12543,2.12545" transform="translate(0.00607 0.00538)"/>
    <path class="cls-4" d="M216.28309,206.89356a2.126,2.126,0,0,0-2.12616-2.12543" transform="translate(0.00607 0.00538)"/>
    <path class="cls-4" d="M199.98377,204.76813a2.126,2.126,0,0,0-2.12615,2.12543" transform="translate(0.00607 0.00538)"/>
    <path class="cls-4" d="M195.73146,209.7282a2.126,2.126,0,0,0,2.12616-2.12545" transform="translate(0.00607 0.00538)"/>
    <path class="cls-4" d="M195.73146,249.408h-8.51037" transform="translate(0.00607 0.00538)"/>
    <path class="cls-4" d="M197.85546,252.2448v-.7056" transform="translate(0.00607 0.00538)"/>
    <path class="cls-4" d="M218.4042,249.408h8.50318" transform="translate(0.00607 0.00538)"/>
    <path class="cls-4" d="M216.28021,252.2448v-.7056" transform="translate(0.00607 0.00538)"/>
    <path class="cls-4" d="M199.97945,254.36879h14.17676" transform="translate(0.00607 0.00538)"/>
    <path class="cls-4" d="M218.4042,209.72171h8.50318" transform="translate(0.00607 0.00538)"/>
    <path class="cls-4" d="M216.28021,206.89212v.7056" transform="translate(0.00607 0.00538)"/>
    <path class="cls-4" d="M195.73146,209.72171h-8.51037" transform="translate(0.00607 0.00538)"/>
    <path class="cls-4" d="M197.85546,206.89212v.7056" transform="translate(0.00607 0.00538)"/>
    <path class="cls-4" d="M199.97945,204.76093h14.17676" transform="translate(0.00607 0.00538)"/>
    <path class="cls-4" d="M226.90738,209.72171V249.408" transform="translate(0.00607 0.00538)"/>
    <path class="cls-4" d="M187.22109,209.72171V249.408" transform="translate(0.00607 0.00538)"/>
    <path class="cls-4" d="M241.22094,262.908V223.22168" transform="translate(0.00607 0.00538)"/>
    <path class="cls-4" d="M280.90723,262.908H241.22094" transform="translate(0.00607 0.00538)"/>
    <path class="cls-4" d="M280.90723,223.22168V262.908" transform="translate(0.00607 0.00538)"/>
    <path class="cls-4" d="M241.22094,223.22168h39.68629" transform="translate(0.00607 0.00538)"/>
    <path class="cls-4" d="M296.992,263.628l3.456-39.5351" transform="translate(0.00607 0.00538)"/>
    <path class="cls-4" d="M336.52708,267.084,296.992,263.628" transform="translate(0.00607 0.00538)"/>
    <path class="cls-4" d="M339.98307,227.54887l-3.456,39.53509" transform="translate(0.00607 0.00538)"/>
    <path class="cls-4" d="M300.448,224.09287l39.53509,3.456" transform="translate(0.00607 0.00538)"/>
    <path class="cls-4" d="M227.721,181.90819V142.2219" transform="translate(0.00607 0.00538)"/>
    <path class="cls-4" d="M267.40727,181.90819H227.721" transform="translate(0.00607 0.00538)"/>
    <path class="cls-4" d="M267.40727,142.2219v39.68629" transform="translate(0.00607 0.00538)"/>
    <path class="cls-4" d="M227.721,142.2219h39.68629" transform="translate(0.00607 0.00538)"/>
    <path class="cls-4" d="M65.72142,107.662V67.9757" transform="translate(0.00607 0.00538)"/>
    <path class="cls-4" d="M105.40771,107.662H65.72142" transform="translate(0.00607 0.00538)"/>
    <path class="cls-4" d="M105.40771,67.9757V107.662" transform="translate(0.00607 0.00538)"/>
    <path class="cls-4" d="M65.72142,67.9757h39.68629" transform="translate(0.00607 0.00538)"/>
    <path class="cls-4" d="M119.72127,64.90851V25.22222" transform="translate(0.00607 0.00538)"/>
    <path class="cls-4" d="M159.40756,64.90851H119.72127" transform="translate(0.00607 0.00538)"/>
    <path class="cls-4" d="M159.40756,25.22222V64.90851" transform="translate(0.00607 0.00538)"/>
    <path class="cls-4" d="M119.72127,25.22222h39.68629" transform="translate(0.00607 0.00538)"/>
    <path class="cls-4" d="M173.72113,51.40855V11.72226" transform="translate(0.00607 0.00538)"/>
    <path class="cls-4" d="M213.40742,51.40855H173.72113" transform="translate(0.00607 0.00538)"/>
    <path class="cls-4" d="M213.40742,11.72226V51.40855" transform="translate(0.00607 0.00538)"/>
    <path class="cls-4" d="M173.72113,11.72226h39.68629" transform="translate(0.00607 0.00538)"/>
    <path class="cls-4" d="M227.721,73.90849V34.22219" transform="translate(0.00607 0.00538)"/>
    <path class="cls-4" d="M267.40727,73.90849H227.721" transform="translate(0.00607 0.00538)"/>
    <path class="cls-4" d="M267.40727,34.22219v39.6863" transform="translate(0.00607 0.00538)"/>
    <path class="cls-4" d="M227.721,34.22219h39.68629" transform="translate(0.00607 0.00538)"/>
    <path class="cls-4" d="M281.72083,87.40845V47.72216" transform="translate(0.00607 0.00538)"/>
    <path class="cls-4" d="M321.40712,87.40845H281.72083" transform="translate(0.00607 0.00538)"/>
    <path class="cls-4" d="M321.40712,47.72216V87.40845" transform="translate(0.00607 0.00538)"/>
    <path class="cls-4" d="M281.72083,47.72216h39.68629" transform="translate(0.00607 0.00538)"/>
    <path class="cls-4" d="M11.72157,168.40823V128.72194" transform="translate(0.00607 0.00538)"/>
    <path class="cls-4" d="M51.40786,168.40823H11.72157" transform="translate(0.00607 0.00538)"/>
    <path class="cls-4" d="M51.40786,128.72194v39.68629" transform="translate(0.00607 0.00538)"/>
    <path class="cls-4" d="M11.72157,128.72194H51.40786" transform="translate(0.00607 0.00538)"/>
    <path class="cls-4" d="M65.72142,161.66185v-39.6863" transform="translate(0.00607 0.00538)"/>
    <path class="cls-4" d="M105.40771,161.66185H65.72142" transform="translate(0.00607 0.00538)"/>
    <path class="cls-4" d="M105.40771,121.97555v39.6863" transform="translate(0.00607 0.00538)"/>
    <path class="cls-4" d="M65.72142,121.97555h39.68629" transform="translate(0.00607 0.00538)"/>
    <path class="cls-4" d="M119.72127,118.90836V79.22207" transform="translate(0.00607 0.00538)"/>
    <path class="cls-4" d="M159.40756,118.90836H119.72127" transform="translate(0.00607 0.00538)"/>
    <path class="cls-4" d="M159.40756,79.22207v39.68629" transform="translate(0.00607 0.00538)"/>
    <path class="cls-4" d="M119.72127,79.22207h39.68629" transform="translate(0.00607 0.00538)"/>
    <path class="cls-4" d="M173.72113,105.4084V65.72211" transform="translate(0.00607 0.00538)"/>
    <path class="cls-4" d="M213.40742,105.4084H173.72113" transform="translate(0.00607 0.00538)"/>
    <path class="cls-4" d="M213.40742,65.72211V105.4084" transform="translate(0.00607 0.00538)"/>
    <path class="cls-4" d="M173.72113,65.72211h39.68629" transform="translate(0.00607 0.00538)"/>
    <path class="cls-4" d="M227.721,127.90834V88.22205" transform="translate(0.00607 0.00538)"/>
    <path class="cls-4" d="M267.40727,127.90834H227.721" transform="translate(0.00607 0.00538)"/>
    <path class="cls-4" d="M267.40727,88.22205v39.68629" transform="translate(0.00607 0.00538)"/>
    <path class="cls-4" d="M227.721,88.22205h39.68629" transform="translate(0.00607 0.00538)"/>
    <path class="cls-4" d="M281.72083,141.4083V101.722" transform="translate(0.00607 0.00538)"/>
    <path class="cls-4" d="M321.40712,141.4083H281.72083" transform="translate(0.00607 0.00538)"/>
    <path class="cls-4" d="M321.40712,101.722V141.4083" transform="translate(0.00607 0.00538)"/>
    <path class="cls-4" d="M281.72083,101.722h39.68629" transform="translate(0.00607 0.00538)"/>
    <path class="cls-4" d="M65.72142,215.6617V175.97541" transform="translate(0.00607 0.00538)"/>
    <path class="cls-4" d="M105.40771,215.6617H65.72142" transform="translate(0.00607 0.00538)"/>
    <path class="cls-4" d="M105.40771,175.97541V215.6617" transform="translate(0.00607 0.00538)"/>
    <path class="cls-4" d="M65.72142,175.97541h39.68629" transform="translate(0.00607 0.00538)"/>
    <path class="cls-4" d="M159.40756,133.22192v39.68629H119.72127V133.22192" transform="translate(0.00607 0.00538)"/>
    <path class="cls-4" d="M119.72127,133.22192h39.68629" transform="translate(0.00607 0.00538)"/>
    <path class="cls-4" d="M173.72113,159.40825V119.722" transform="translate(0.00607 0.00538)"/>
    <path class="cls-4" d="M213.40742,159.40825H173.72113" transform="translate(0.00607 0.00538)"/>
    <path class="cls-4" d="M213.40742,119.722v39.68629" transform="translate(0.00607 0.00538)"/>
    <path class="cls-4" d="M173.72113,119.722h39.68629" transform="translate(0.00607 0.00538)"/>
    <path class="cls-4" d="M281.72083,195.40815V155.72186" transform="translate(0.00607 0.00538)"/>
    <path class="cls-4" d="M321.40712,195.40815H281.72083" transform="translate(0.00607 0.00538)"/>
    <path class="cls-4" d="M321.40712,155.72186v39.68629" transform="translate(0.00607 0.00538)"/>
    <path class="cls-4" d="M281.72083,155.72186h39.68629" transform="translate(0.00607 0.00538)"/>
    <path class="cls-4" d="M350.58864,283.17591,360.863,244.84322" transform="translate(0.00607 0.00538)"/>
    <path class="cls-4" d="M388.92134,293.45029l-38.3327-10.27438" transform="translate(0.00607 0.00538)"/>
    <path class="cls-4" d="M399.19571,255.11759l-10.27437,38.3327" transform="translate(0.00607 0.00538)"/>
    <path class="cls-4" d="M360.863,244.84322l38.3327,10.27437" transform="translate(0.00607 0.00538)"/>
  </g>
  <g>
    <path class="cls-2" d="M360.25822,148.90348H340.70307" transform="translate(0.00607 0.00538)"/>
    <path class="cls-2" d="M360.25822,173.28261V148.90348" transform="translate(0.00607 0.00538)"/>
    <path class="cls-2" d="M340.70307,173.28261h19.55515" transform="translate(0.00607 0.00538)"/>
    <path class="cls-2" d="M340.70307,148.90348v24.37913" transform="translate(0.00607 0.00538)"/>
    <path class="cls-2" d="M392.08933,140.5731h20.55594" transform="translate(0.00607 0.00538)"/>
    <path class="cls-2" d="M392.08933,167.63783V140.5731" transform="translate(0.00607 0.00538)"/>
    <path class="cls-2" d="M412.64527,167.63783H392.08933" transform="translate(0.00607 0.00538)"/>
    <path class="cls-2" d="M412.64527,140.5731v27.06473" transform="translate(0.00607 0.00538)"/>
  </g>
  <g>
    <path class="cls-5" d="M412.62944,199.87071" transform="translate(0.00607 0.00538)"/>
    <path class="cls-5" d="M412.62944,178.27077h0" transform="translate(0.00607 0.00538)"/>
    <path class="cls-5" d="M60.81823,58.56533v4.5" transform="translate(0.00607 0.00538)"/>
    <path class="cls-5" d="M63.07067,56.32138a2.25,2.25,0,0,0-2.25,2.25" transform="translate(0.00607 0.00538)"/>
    <path class="cls-5" d="M54.0707,63.07136" transform="translate(0.00607 0.00538)"/>
    <path class="cls-5" d="M72.07065,234.07061" transform="translate(0.00607 0.00538)"/>
    <path class="cls-5" d="M63.07067,234.07061" transform="translate(0.00607 0.00538)"/>
    <path class="cls-5" d="M229.56994,285.82047a2.25,2.25,0,0,0,2.25,2.25" transform="translate(0.00607 0.00538)"/>
    <path class="cls-5" d="M229.56994,263.32053a2.25,2.25,0,0,0-2.25-2.25" transform="translate(0.00607 0.00538)"/>
    <path class="cls-5" d="M175.57009,258.82055a2.25,2.25,0,0,0,2.25,2.25h0" transform="translate(0.00607 0.00538)"/>
    <path class="cls-5" d="M175.57009,236.32061a2.25,2.25,0,0,0-2.25-2.25h0" transform="translate(0.00607 0.00538)"/>
    <path class="cls-5" d="M412.62944,38.30343a2.232,2.232,0,0,0-2.232-2.232" transform="translate(0.00607 0.00538)"/>
    <path class="cls-5" d="M279.064,24.819v9" transform="translate(0.00607 0.00538)"/>
    <path class="cls-5" d="M279.0698,33.82144a2.25,2.25,0,0,0,2.25,2.25h0" transform="translate(0.00607 0.00538)"/>
    <path class="cls-5" d="M279.0698,24.82147a2.25,2.25,0,0,0-2.25-2.25" transform="translate(0.00607 0.00538)"/>
    <path class="cls-5" d="M225.07,20.32148a2.25,2.25,0,0,0,2.25,2.25h0" transform="translate(0.00607 0.00538)"/>
    <path class="cls-5" d="M225.07,2.32155a2.25,2.25,0,0,0-2.25-2.25h0" transform="translate(0.00607 0.00538)"/>
    <path class="cls-5" d="M162.06436,11.31906v-9" transform="translate(0.00607 0.00538)"/>
    <path class="cls-5" d="M164.32012.07156a2.25,2.25,0,0,0-2.25,2.25h0" transform="translate(0.00607 0.00538)"/>
    <path class="cls-5" d="M159.82013,13.5715a2.25,2.25,0,0,0,2.25-2.25" transform="translate(0.00607 0.00538)"/>
    <path class="cls-5" d="M110.32026,13.5715a2.25,2.25,0,0,0-2.25,2.25h0" transform="translate(0.00607 0.00538)"/>
    <path class="cls-5" d="M105.82027,56.32138a2.25,2.25,0,0,0,2.25-2.25h0" transform="translate(0.00607 0.00538)"/>
    <path class="cls-5" d="M2.32086,63.07136a2.25,2.25,0,0,0-2.25,2.25h0" transform="translate(0.00607 0.00538)"/>
    <path class="cls-5" d="M.07087,231.82062a2.25,2.25,0,0,0,2.25,2.25h0" transform="translate(0.00607 0.00538)"/>
    <path class="cls-5" d="M412.62367,38.29738V248.10481" transform="translate(0.00607 0.00538)"/>
    <path class="cls-5" d="M398.43251,301.07506l14.19116-52.97025" transform="translate(0.00607 0.00538)"/>
    <path class="cls-5" d="M341.34387,292.74469l48.81586,13.104" transform="translate(0.00607 0.00538)"/>
    <path class="cls-5" d="M288.064,288.0647l53.27986,4.68" transform="translate(0.00607 0.00538)"/>
    <path class="cls-5" d="M231.81777,288.0647H288.064" transform="translate(0.00607 0.00538)"/>
    <path class="cls-5" d="M229.56417,263.31837v22.49994" transform="translate(0.00607 0.00538)"/>
    <path class="cls-5" d="M177.81791,261.06477h49.49987" transform="translate(0.00607 0.00538)"/>
    <path class="cls-5" d="M175.56432,236.31844v22.49994" transform="translate(0.00607 0.00538)"/>
    <path class="cls-5" d="M173.31793,234.06485H2.31839" transform="translate(0.00607 0.00538)"/>
    <path class="cls-5" d="M281.31763,36.06539H410.39168" transform="translate(0.00607 0.00538)"/>
    <path class="cls-5" d="M227.31778,22.56543h49.49986" transform="translate(0.00607 0.00538)"/>
    <path class="cls-5" d="M225.06418,2.31908v18" transform="translate(0.00607 0.00538)"/>
    <path class="cls-5" d="M164.318.06549h58.49984" transform="translate(0.00607 0.00538)"/>
    <path class="cls-5" d="M110.3181,13.56545H159.818" transform="translate(0.00607 0.00538)"/>
    <path class="cls-5" d="M108.0645,54.06534V15.819" transform="translate(0.00607 0.00538)"/>
    <path class="cls-5" d="M63.06463,56.31893h42.75348" transform="translate(0.00607 0.00538)"/>
    <path class="cls-5" d="M2.31839,63.06531H60.81823" transform="translate(0.00607 0.00538)"/>
    <path class="cls-5" d="M.0648,231.81845V65.31891" transform="translate(0.00607 0.00538)"/>
    <path class="cls-5" d="M390.1655,305.85442a6.75,6.75,0,0,0,8.267-4.77289" transform="translate(0.00607 0.00538)"/>
  </g>
</svg>
