(module LOGO (layer F.Cu)
  (at 0 0)
 (fp_text reference "G***" (at 0 0) (layer F.SilkS) hide
  (effects (font (thickness 0.3)))
  )
  (fp_text value "LOGO" (at 0.75 0) (layer F.SilkS) hide
  (effects (font (thickness 0.3)))
  )
  (fp_poly (pts (xy -5.778157 -10.427851) (xy -4.999574 -10.393896) (xy -4.675909 -10.372996) (xy -4.359370 -10.348444) (xy -4.025284 -10.318296) (xy -3.671502 -10.282357) (xy -3.596409 -10.274263) (xy -3.273137 -10.239092)
     (xy -3.036020 -10.160151) (xy -2.613454 -10.007319) (xy -2.198944 -9.832922) (xy -1.792839 -9.637162) (xy -1.395485 -9.420242) (xy -1.007231 -9.182363) (xy -0.628423 -8.923726) (xy -0.259410 -8.644533)
     (xy 0.099461 -8.344987) (xy 0.115242 -8.331141) (xy 0.160380 -8.290431) (xy 0.217839 -8.237028) (xy 0.283706 -8.174661) (xy 0.354069 -8.107059) (xy 0.425015 -8.037949) (xy 0.479961 -7.983681)
     (xy 0.797218 -7.652014) (xy 1.096108 -7.306620) (xy 1.376317 -6.948170) (xy 1.637534 -6.577330) (xy 1.879446 -6.194770) (xy 2.101741 -5.801158) (xy 2.304105 -5.397164) (xy 2.486227 -4.983455)
     (xy 2.647794 -4.560700) (xy 2.788494 -4.129568) (xy 2.908013 -3.690728) (xy 3.006040 -3.244848) (xy 3.082262 -2.792596) (xy 3.136366 -2.334642) (xy 3.140264 -2.291772) (xy 3.143977 -2.244024)
     (xy 3.148398 -2.177606) (xy 3.153275 -2.096921) (xy 3.158351 -2.006368) (xy 3.163375 -1.910350) (xy 3.168091 -1.813267) (xy 3.168920 -1.795318) (xy 3.174164 -1.685905) (xy 3.179272 -1.594089)
     (xy 3.184788 -1.514388) (xy 3.191257 -1.441317) (xy 3.199223 -1.369392) (xy 3.209232 -1.293131) (xy 3.221826 -1.207050) (xy 3.237126 -1.108363) (xy 3.339773 -0.483827) (xy 3.448291 0.122496)
     (xy 3.563641 0.714954) (xy 3.686784 1.297897) (xy 3.818681 1.875673) (xy 3.960293 2.452632) (xy 4.112581 3.033123) (xy 4.276506 3.621494) (xy 4.300828 3.706091) (xy 4.340835 3.844434)
     (xy 4.375521 3.963245) (xy 4.405882 4.065203) (xy 4.432914 4.152987) (xy 4.457612 4.229275) (xy 4.480973 4.296745) (xy 4.503990 4.358076) (xy 4.527662 4.415948) (xy 4.552982 4.473037)
     (xy 4.580947 4.532024) (xy 4.612552 4.595586) (xy 4.648793 4.666402) (xy 4.680643 4.727864) (xy 4.866148 5.060070) (xy 5.071915 5.381469) (xy 5.298166 5.692395) (xy 5.450788 5.882410)
     (xy 5.505064 5.944812) (xy 5.573030 6.018704) (xy 5.650995 6.100410) (xy 5.735265 6.186254) (xy 5.822149 6.272561) (xy 5.907953 6.355656) (xy 5.988985 6.431864) (xy 6.061553 6.497510)
     (xy 6.113318 6.541843) (xy 6.381011 6.749044) (xy 6.655951 6.934582) (xy 6.938871 7.098775) (xy 7.230504 7.241941) (xy 7.531584 7.364397) (xy 7.842843 7.466462) (xy 8.165015 7.548453)
     (xy 8.498832 7.610688) (xy 8.618682 7.627878) (xy 8.684522 7.634597) (xy 8.768595 7.640075) (xy 8.866511 7.644286) (xy 8.973881 7.647205) (xy 9.086319 7.648806) (xy 9.199434 7.649064)
     (xy 9.308839 7.647952) (xy 9.410146 7.645447) (xy 9.498966 7.641521) (xy 9.570910 7.636150) (xy 9.594273 7.633554) (xy 9.831839 7.597940) (xy 10.056829 7.552060) (xy 10.278259 7.493832)
     (xy 10.489045 7.426719) (xy 10.714926 7.343371) (xy 10.935002 7.250602) (xy 11.147699 7.149504) (xy 11.351442 7.041167) (xy 11.544656 6.926685) (xy 11.725766 6.807147) (xy 11.893199 6.683646)
     (xy 12.045380 6.557273) (xy 12.180733 6.429120) (xy 12.297684 6.300279) (xy 12.394659 6.171840) (xy 12.463144 6.058271) (xy 12.502677 5.976823) (xy 12.530101 5.902342) (xy 12.548257 5.825184)
     (xy 12.559985 5.735705) (xy 12.560838 5.726546) (xy 12.572396 5.637368) (xy 12.590693 5.565026) (xy 12.618223 5.503660) (xy 12.657483 5.447407) (xy 12.698944 5.402217) (xy 12.750532 5.354706)
     (xy 12.796979 5.321848) (xy 12.844318 5.299046) (xy 12.862304 5.292294) (xy 12.880056 5.286712) (xy 12.899992 5.282138) (xy 12.924530 5.278413) (xy 12.956091 5.275377) (xy 12.997092 5.272869)
     (xy 13.049953 5.270730) (xy 13.117092 5.268799) (xy 13.200929 5.266916) (xy 13.303881 5.264921) (xy 13.381182 5.263507) (xy 13.553471 5.259680) (xy 13.718700 5.254623) (xy 13.874744 5.248461)
     (xy 14.019479 5.241316) (xy 14.150782 5.233312) (xy 14.266527 5.224573) (xy 14.364591 5.215222) (xy 14.442850 5.205382) (xy 14.476459 5.199848) (xy 14.533209 5.190805) (xy 14.578019 5.187928)
     (xy 14.621125 5.190949) (xy 14.649583 5.195335) (xy 14.744674 5.222624) (xy 14.829754 5.267993) (xy 14.902889 5.328653) (xy 14.962151 5.401813) (xy 15.005606 5.484683) (xy 15.031325 5.574473)
     (xy 15.037377 5.668394) (xy 15.027515 5.741346) (xy 15.014675 5.788808) (xy 14.993856 5.854157) (xy 14.966247 5.934086) (xy 14.933037 6.025288) (xy 14.895413 6.124457) (xy 14.854565 6.228286)
     (xy 14.835730 6.274955) (xy 14.675033 6.642470) (xy 14.497394 6.997131) (xy 14.303421 7.338172) (xy 14.093724 7.664827) (xy 13.868914 7.976331) (xy 13.629600 8.271918) (xy 13.376393 8.550822)
     (xy 13.109901 8.812278) (xy 12.830735 9.055520) (xy 12.539505 9.279781) (xy 12.324773 9.427701) (xy 12.006880 9.623215) (xy 11.681055 9.797573) (xy 11.346970 9.950865) (xy 11.004298 10.083181)
     (xy 10.652713 10.194611) (xy 10.291886 10.285245) (xy 9.921492 10.355173) (xy 9.541202 10.404485) (xy 9.150691 10.433270) (xy 8.749630 10.441619) (xy 8.641773 10.440422) (xy 8.477678 10.435102)
     (xy 8.295423 10.424804) (xy 8.099313 10.409896) (xy 7.893651 10.390747) (xy 7.682741 10.367725) (xy 7.470887 10.341200) (xy 7.448592 10.338204) (xy 7.057802 10.273722) (xy 6.668127 10.186186)
     (xy 6.279589 10.075607) (xy 5.892207 9.941995) (xy 5.506004 9.785360) (xy 5.121001 9.605714) (xy 4.737217 9.403068) (xy 4.354676 9.177431) (xy 3.973397 8.928816) (xy 3.593401 8.657231)
     (xy 3.214710 8.362689) (xy 2.837345 8.045200) (xy 2.695863 7.919944) (xy 2.617634 7.848424) (xy 2.526762 7.763106) (xy 2.426364 7.667072) (xy 2.319556 7.563401) (xy 2.209456 7.455175)
     (xy 2.099180 7.345471) (xy 1.991844 7.237372) (xy 1.890566 7.133957) (xy 1.798462 7.038306) (xy 1.726458 6.961910) (xy 1.346603 6.540180) (xy 0.970893 6.096265) (xy 0.599749 5.630767)
     (xy 0.233588 5.144289) (xy -0.127170 4.637435) (xy -0.482105 4.110806) (xy -0.830799 3.565007) (xy -1.172833 3.000638) (xy -1.507788 2.418304) (xy -1.789110 1.905000) (xy -1.840891 1.807197)
     (xy -1.899991 1.693517) (xy -1.964705 1.567381) (xy -2.033333 1.432210) (xy -2.104172 1.291423) (xy -2.175519 1.148441) (xy -2.245672 1.006684) (xy -2.312928 0.869572) (xy -2.375586 0.740524)
     (xy -2.431944 0.622963) (xy -2.480298 0.520307) (xy -2.505371 0.465953) (xy -2.537967 0.394734) (xy -2.562769 0.341721) (xy -2.581558 0.304106) (xy -2.596115 0.279082) (xy -2.608221 0.263844)
     (xy -2.619656 0.255583) (xy -2.632203 0.251494) (xy -2.642644 0.249602) (xy -2.711054 0.243124) (xy -2.776067 0.248732) (xy -2.844000 0.265782) (xy -2.925825 0.300760) (xy -2.996306 0.350151)
     (xy -3.052502 0.410802) (xy -3.091472 0.479562) (xy -3.110005 0.550785) (xy -3.136684 0.716354) (xy -3.179312 0.890990) (xy -3.235872 1.069256) (xy -3.304348 1.245714) (xy -3.382723 1.414924)
     (xy -3.468980 1.571449) (xy -3.515983 1.645580) (xy -3.663059 1.845874) (xy -3.825177 2.028827) (xy -4.001783 2.194016) (xy -4.192325 2.341016) (xy -4.396251 2.469401) (xy -4.613008 2.578747)
     (xy -4.842043 2.668629) (xy -4.851423 2.671804) (xy -5.085222 2.738415) (xy -5.322858 2.782566) (xy -5.562785 2.804253) (xy -5.803458 2.803470) (xy -6.043330 2.780213) (xy -6.280858 2.734476)
     (xy -6.482773 2.676931) (xy -6.549356 2.652813) (xy -6.628027 2.620833) (xy -6.713404 2.583502) (xy -6.800101 2.543336) (xy -6.882735 2.502847) (xy -6.955922 2.464547) (xy -7.014279 2.430951)
     (xy -7.027009 2.422873) (xy -7.052626 2.403762) (xy -7.091683 2.371579) (xy -7.140899 2.329171) (xy -7.196994 2.279392) (xy -7.256687 2.225089) (xy -7.286782 2.197203) (xy -7.404897 2.088393)
     (xy -7.512806 1.992113) (xy -7.615875 1.903846) (xy -7.719472 1.819074) (xy -7.828965 1.733280) (xy -7.920647 1.663696) (xy -8.255767 1.426335) (xy -8.600938 1.209675) (xy -8.956323 1.013643)
     (xy -9.322089 0.838166) (xy -9.698402 0.683170) (xy -10.085426 0.548582) (xy -10.483327 0.434328) (xy -10.892270 0.340336) (xy -10.910922 0.336584) (xy -11.008391 0.315998) (xy -11.088710 0.296721)
     (xy -11.150030 0.279238) (xy -11.190499 0.264035) (xy -11.193786 0.262428) (xy -11.234812 0.237623) (xy -11.290162 0.198040) (xy -11.357951 0.145346) (xy -11.436291 0.081206) (xy -11.523295 0.007287)
     (xy -11.617078 -0.074746) (xy -11.715753 -0.163226) (xy -11.817432 -0.256488) (xy -11.920230 -0.352865) (xy -12.022261 -0.450692) (xy -12.121636 -0.548302) (xy -12.192234 -0.619291) (xy -12.520583 -0.969307)
     (xy -12.829925 -1.332431) (xy -13.120225 -1.708605) (xy -13.391446 -2.097771) (xy -13.643552 -2.499871) (xy -13.876505 -2.914847) (xy -14.090269 -3.342642) (xy -14.284808 -3.783196) (xy -14.445695 -4.196772)
     (xy -14.586478 -4.613216) (xy -14.709091 -5.040138) (xy -14.813126 -5.474961) (xy -14.898177 -5.915105) (xy -14.963834 -6.357990) (xy -15.009692 -6.801038) (xy -15.035341 -7.241670) (xy -15.039342 -7.587969)
     (xy -14.118945 -7.587969) (xy -14.118861 -7.471969) (xy -14.117833 -7.359573) (xy -14.115812 -7.253450) (xy -14.112751 -7.156269) (xy -14.108602 -7.070699) (xy -14.108307 -7.065818) (xy -14.068729 -6.605156)
     (xy -14.006939 -6.150178) (xy -13.923157 -5.701433) (xy -13.817598 -5.259470) (xy -13.690480 -4.824836) (xy -13.542021 -4.398080) (xy -13.372439 -3.979750) (xy -13.181950 -3.570394) (xy -12.970772 -3.170562)
     (xy -12.739122 -2.780801) (xy -12.487219 -2.401659) (xy -12.215279 -2.033685) (xy -12.013726 -1.783772) (xy -11.742200 -1.474338) (xy -11.451758 -1.172927) (xy -11.146191 -0.883370) (xy -10.962409 -0.721410)
     (xy -10.904974 -0.672172) (xy -10.860556 -0.635238) (xy -10.824382 -0.608189) (xy -10.791682 -0.588606) (xy -10.757682 -0.574070) (xy -10.717612 -0.562161) (xy -10.666700 -0.550460) (xy -10.600175 -0.536549)
     (xy -10.596083 -0.535696) (xy -10.188167 -0.438904) (xy -9.784090 -0.319885) (xy -9.385264 -0.179371) (xy -8.993104 -0.018099) (xy -8.609021 0.163197) (xy -8.234431 0.363782) (xy -7.870745 0.582921)
     (xy -7.519379 0.819879) (xy -7.181745 1.073922) (xy -6.859257 1.344314) (xy -6.698638 1.490555) (xy -6.627080 1.556679) (xy -6.567668 1.609027) (xy -6.516460 1.650389) (xy -6.469517 1.683555)
     (xy -6.422900 1.711315) (xy -6.372667 1.736460) (xy -6.316770 1.760988) (xy -6.135952 1.824553) (xy -5.949605 1.866437) (xy -5.759985 1.886696) (xy -5.569351 1.885386) (xy -5.379957 1.862564)
     (xy -5.194061 1.818288) (xy -5.013920 1.752614) (xy -4.957160 1.726754) (xy -4.898336 1.697337) (xy -4.838867 1.665504) (xy -4.786512 1.635515) (xy -4.755114 1.615815) (xy -4.598485 1.497115)
     (xy -4.458134 1.362964) (xy -4.335009 1.214912) (xy -4.230052 1.054510) (xy -4.144208 0.883310) (xy -4.078424 0.702861) (xy -4.033643 0.514716) (xy -4.017995 0.405692) (xy -4.000558 0.297521)
     (xy -3.971722 0.195333) (xy -3.929434 0.093938) (xy -3.871638 -0.011852) (xy -3.821784 -0.089914) (xy -3.768361 -0.161221) (xy -3.701803 -0.237298) (xy -3.628106 -0.312093) (xy -3.553268 -0.379557)
     (xy -3.483283 -0.433638) (xy -3.476685 -0.438143) (xy -3.393331 -0.488566) (xy -3.296541 -0.537941) (xy -3.195104 -0.582280) (xy -3.097806 -0.617592) (xy -3.051893 -0.631028) (xy -2.973203 -0.647196)
     (xy -2.879883 -0.659245) (xy -2.779531 -0.666766) (xy -2.679741 -0.669348) (xy -2.588110 -0.666581) (xy -2.521798 -0.659638) (xy -2.415834 -0.637966) (xy -2.306272 -0.606198) (xy -2.198781 -0.566586)
     (xy -2.099030 -0.521380) (xy -2.012689 -0.472832) (xy -1.962851 -0.437737) (xy -1.923013 -0.402693) (xy -1.888459 -0.363335) (xy -1.856307 -0.315303) (xy -1.823676 -0.254242) (xy -1.787681 -0.175793)
     (xy -1.784039 -0.167409) (xy -1.691284 0.041546) (xy -1.587056 0.266662) (xy -1.472867 0.505008) (xy -1.350227 0.753649) (xy -1.220646 1.009653) (xy -1.085635 1.270086) (xy -0.946705 1.532016)
     (xy -0.805367 1.792508) (xy -0.663131 2.048631) (xy -0.521507 2.297450) (xy -0.459927 2.403603) (xy -0.148360 2.924484) (xy 0.167989 3.427823) (xy 0.488814 3.913301) (xy 0.813810 4.380600)
     (xy 1.142673 4.829404) (xy 1.475098 5.259394) (xy 1.810778 5.670252) (xy 2.149410 6.061661) (xy 2.490687 6.433304) (xy 2.834306 6.784861) (xy 3.179960 7.116017) (xy 3.527345 7.426452)
     (xy 3.876156 7.715850) (xy 4.226087 7.983892) (xy 4.576834 8.230261) (xy 4.928091 8.454639) (xy 5.279554 8.656709) (xy 5.630916 8.836152) (xy 5.786294 8.908257) (xy 6.047930 9.019069)
     (xy 6.318308 9.120599) (xy 6.592095 9.211148) (xy 6.863961 9.289020) (xy 7.128573 9.352518) (xy 7.272679 9.381364) (xy 7.384008 9.400390) (xy 7.513345 9.419892) (xy 7.655627 9.439269)
     (xy 7.805796 9.457919) (xy 7.958793 9.475244) (xy 8.109557 9.490640) (xy 8.253029 9.503508) (xy 8.382000 9.513107) (xy 8.456511 9.516634) (xy 8.548507 9.518888) (xy 8.653672 9.519938)
     (xy 8.767693 9.519850) (xy 8.886253 9.518694) (xy 9.005038 9.516535) (xy 9.119733 9.513442) (xy 9.226023 9.509482) (xy 9.319593 9.504723) (xy 9.396129 9.499232) (xy 9.421091 9.496837)
     (xy 9.755626 9.453151) (xy 10.074691 9.394133) (xy 10.380708 9.319048) (xy 10.676101 9.227159) (xy 10.963293 9.117731) (xy 11.244705 8.990027) (xy 11.463042 8.876550) (xy 11.751499 8.705228)
     (xy 12.029836 8.513652) (xy 12.297253 8.302694) (xy 12.552954 8.073224) (xy 12.796137 7.826114) (xy 13.026007 7.562237) (xy 13.241762 7.282463) (xy 13.442606 6.987665) (xy 13.627739 6.678713)
     (xy 13.796362 6.356479) (xy 13.823039 6.301052) (xy 13.884838 6.171046) (xy 13.653215 6.175085) (xy 13.581913 6.176810) (xy 13.518242 6.179262) (xy 13.465906 6.182224) (xy 13.428611 6.185480)
     (xy 13.410062 6.188812) (xy 13.409027 6.189380) (xy 13.398236 6.206156) (xy 13.386110 6.236054) (xy 13.382053 6.248841) (xy 13.355566 6.322152) (xy 13.316096 6.408316) (xy 13.266120 6.503034)
     (xy 13.208114 6.602006) (xy 13.144555 6.700932) (xy 13.077920 6.795515) (xy 13.034448 6.852228) (xy 12.892277 7.016219) (xy 12.728893 7.178174) (xy 12.546160 7.336925) (xy 12.345940 7.491300)
     (xy 12.130097 7.640131) (xy 11.900493 7.782248) (xy 11.658990 7.916480) (xy 11.407451 8.041658) (xy 11.147740 8.156613) (xy 10.881718 8.260174) (xy 10.684511 8.327938) (xy 10.438908 8.401488)
     (xy 10.197056 8.461035) (xy 9.951103 8.508256) (xy 9.693197 8.544826) (xy 9.638143 8.551159) (xy 9.540783 8.559628) (xy 9.425790 8.565811) (xy 9.298510 8.569710) (xy 9.164288 8.571328)
     (xy 9.028468 8.570669) (xy 8.896396 8.567735) (xy 8.773417 8.562529) (xy 8.664875 8.555055) (xy 8.618682 8.550577) (xy 8.249123 8.499173) (xy 7.888372 8.426459) (xy 7.536688 8.332576)
     (xy 7.194331 8.217667) (xy 6.861562 8.081871) (xy 6.538642 7.925332) (xy 6.225830 7.748189) (xy 5.923388 7.550585) (xy 5.631576 7.332661) (xy 5.350654 7.094558) (xy 5.080883 6.836417)
     (xy 4.822522 6.558380) (xy 4.713394 6.430819) (xy 4.514042 6.178834) (xy 4.321063 5.909198) (xy 4.137741 5.627144) (xy 3.967360 5.337904) (xy 3.813202 5.046711) (xy 3.713232 4.836874)
     (xy 3.687358 4.779493) (xy 3.665110 4.729081) (xy 3.645473 4.682696) (xy 3.627427 4.637395) (xy 3.609956 4.590237) (xy 3.592041 4.538278) (xy 3.572665 4.478577) (xy 3.550809 4.408192)
     (xy 3.525457 4.324181) (xy 3.495590 4.223600) (xy 3.463855 4.115955) (xy 3.226754 3.275305) (xy 3.008393 2.427660) (xy 2.808382 1.571264) (xy 2.626333 0.704357) (xy 2.461856 -0.174820)
     (xy 2.314564 -1.068025) (xy 2.308366 -1.108363) (xy 2.292985 -1.210558) (xy 2.280974 -1.295821) (xy 2.271788 -1.369974) (xy 2.264886 -1.438844) (xy 2.259723 -1.508252) (xy 2.255756 -1.584025)
     (xy 2.252442 -1.671986) (xy 2.250749 -1.726045) (xy 2.245818 -1.870555) (xy 2.239993 -1.998386) (xy 2.232808 -2.115946) (xy 2.223794 -2.229645) (xy 2.212484 -2.345890) (xy 2.198411 -2.471089)
     (xy 2.193254 -2.514033) (xy 2.129781 -2.940880) (xy 2.043988 -3.362651) (xy 1.936251 -3.778521) (xy 1.806945 -4.187666) (xy 1.656448 -4.589261) (xy 1.485133 -4.982483) (xy 1.293378 -5.366507)
     (xy 1.081559 -5.740510) (xy 0.850050 -6.103667) (xy 0.599229 -6.455154) (xy 0.329471 -6.794147) (xy 0.143531 -7.008090) (xy 0.076256 -7.081001) (xy -0.003883 -7.164796) (xy -0.093014 -7.255656)
     (xy -0.187262 -7.349762) (xy -0.282755 -7.443297) (xy -0.375618 -7.532441) (xy -0.461978 -7.613375) (xy -0.537963 -7.682282) (xy -0.559955 -7.701604) (xy -0.896868 -7.979565) (xy -1.246745 -8.238681)
     (xy -1.608845 -8.478520) (xy -1.982426 -8.698655) (xy -2.366743 -8.898653) (xy -2.761057 -9.078085) (xy -3.164623 -9.236521) (xy -3.278909 -9.276969) (xy -3.328890 -9.293955) (xy -3.371839 -9.307505)
     (xy -3.412027 -9.318452) (xy -3.453725 -9.327627) (xy -3.501204 -9.335861) (xy -3.558735 -9.343987) (xy -3.630589 -9.352835) (xy -3.721038 -9.363237) (xy -3.723409 -9.363505) (xy -4.470673 -9.436550)
     (xy -5.221733 -9.487033) (xy -5.975538 -9.514972) (xy -6.731034 -9.520382) (xy -7.487168 -9.503277) (xy -8.242888 -9.463674) (xy -8.997139 -9.401587) (xy -9.748870 -9.317033) (xy -10.096500 -9.270176)
     (xy -10.822780 -9.156652) (xy -11.540576 -9.023262) (xy -12.252942 -8.869335) (xy -12.962928 -8.694204) (xy -13.673588 -8.497199) (xy -13.818169 -8.454488) (xy -13.903378 -8.428748) (xy -13.968800 -8.408165)
     (xy -14.016919 -8.391803) (xy -14.050221 -8.378724) (xy -14.071188 -8.367991) (xy -14.082306 -8.358665) (xy -14.085137 -8.353760) (xy -14.091390 -8.325430) (xy -14.097130 -8.276683) (xy -14.102311 -8.210188)
     (xy -14.106884 -8.128613) (xy -14.110800 -8.034629) (xy -14.114013 -7.930903) (xy -14.116473 -7.820105) (xy -14.118133 -7.704904) (xy -14.118945 -7.587969) (xy -15.039342 -7.587969) (xy -15.040375 -7.677306)
     (xy -15.033973 -7.919729) (xy -15.028737 -8.033821) (xy -15.022214 -8.151606) (xy -15.014672 -8.269796) (xy -15.006376 -8.385107) (xy -14.997594 -8.494251) (xy -14.988591 -8.593945) (xy -14.979634 -8.680901)
     (xy -14.970990 -8.751835) (xy -14.962926 -8.803459) (xy -14.961813 -8.809181) (xy -14.931983 -8.902397) (xy -14.883187 -8.987202) (xy -14.818413 -9.059629) (xy -14.740652 -9.115710) (xy -14.724383 -9.124326)
     (xy -14.692114 -9.138046) (xy -14.639853 -9.157215) (xy -14.569867 -9.181138) (xy -14.484424 -9.209122) (xy -14.385790 -9.240470) (xy -14.276231 -9.274489) (xy -14.158015 -9.310483) (xy -14.033409 -9.347758)
     (xy -13.904680 -9.385618) (xy -13.774094 -9.423370) (xy -13.643918 -9.460318) (xy -13.516419 -9.495768) (xy -13.479318 -9.505928) (xy -12.721477 -9.700805) (xy -11.959957 -9.872957) (xy -11.195115 -10.022348)
     (xy -10.427308 -10.148944) (xy -9.656892 -10.252710) (xy -8.884224 -10.333610) (xy -8.109660 -10.391609) (xy -7.333556 -10.426672) (xy -6.556270 -10.438763) (xy -5.778157 -10.427851) )(layer F.SilkS) (width  0.010000)
  )
  (fp_poly (pts (xy -1.136874 -4.020739) (xy -1.048607 -3.986070) (xy -0.968161 -3.933882) (xy -0.898992 -3.865984) (xy -0.844557 -3.784188) (xy -0.841428 -3.778069) (xy -0.802409 -3.700318) (xy -0.802409 -3.498272)
     (xy -0.802559 -3.424877) (xy -0.803339 -3.370274) (xy -0.805244 -3.330165) (xy -0.808772 -3.300254) (xy -0.814418 -3.276241) (xy -0.822679 -3.253830) (xy -0.833352 -3.230209) (xy -0.884639 -3.146854)
     (xy -0.953248 -3.074839) (xy -1.034888 -3.017565) (xy -1.125265 -2.978432) (xy -1.163773 -2.968436) (xy -1.228305 -2.958306) (xy -1.284496 -2.958606) (xy -1.344763 -2.969659) (xy -1.359470 -2.973475)
     (xy -1.458982 -3.011168) (xy -1.543932 -3.066151) (xy -1.613067 -3.137212) (xy -1.665134 -3.223141) (xy -1.691535 -3.294184) (xy -1.699939 -3.329920) (xy -1.705196 -3.370383) (xy -1.707657 -3.420825)
     (xy -1.707669 -3.486498) (xy -1.706906 -3.525094) (xy -1.705057 -3.590799) (xy -1.702592 -3.638804) (xy -1.698605 -3.674497) (xy -1.692190 -3.703267) (xy -1.682441 -3.730501) (xy -1.668453 -3.761589)
     (xy -1.666419 -3.765891) (xy -1.611576 -3.856814) (xy -1.541857 -3.930223) (xy -1.458117 -3.985461) (xy -1.361211 -4.021867) (xy -1.323045 -4.030278) (xy -1.229506 -4.036078) (xy -1.136874 -4.020739) )(layer F.SilkS) (width  0.010000)
  )
  (fp_poly (pts (xy -9.229542 -8.216968) (xy -8.912147 -8.206841) (xy -8.606406 -8.191432) (xy -8.509000 -8.185192) (xy -7.889285 -8.132218) (xy -7.267432 -8.057179) (xy -6.646552 -7.960498) (xy -6.119898 -7.861211)
     (xy -5.966375 -7.829410) (xy -5.834529 -7.800984) (xy -5.723236 -7.775652) (xy -5.631376 -7.753133) (xy -5.557823 -7.733146) (xy -5.501456 -7.715409) (xy -5.461153 -7.699643) (xy -5.447843 -7.693053)
     (xy -5.383248 -7.647738) (xy -5.322726 -7.586733) (xy -5.272959 -7.517295) (xy -5.255261 -7.483972) (xy -5.241242 -7.451679) (xy -5.232201 -7.422337) (xy -5.227076 -7.389314) (xy -5.224804 -7.345979)
     (xy -5.224318 -7.290954) (xy -5.224777 -7.233408) (xy -5.226927 -7.192395) (xy -5.231929 -7.161362) (xy -5.240944 -7.133757) (xy -5.255132 -7.103027) (xy -5.258955 -7.095410) (xy -5.313891 -7.010406)
     (xy -5.384624 -6.938897) (xy -5.467130 -6.884844) (xy -5.478494 -6.879314) (xy -5.548438 -6.853195) (xy -5.621941 -6.839875) (xy -5.703188 -6.839255) (xy -5.796362 -6.851238) (xy -5.882409 -6.869859)
     (xy -5.960574 -6.888263) (xy -6.057072 -6.909662) (xy -6.167476 -6.933169) (xy -6.287357 -6.957899) (xy -6.412288 -6.982963) (xy -6.537839 -7.007476) (xy -6.659583 -7.030550) (xy -6.773092 -7.051300)
     (xy -6.873936 -7.068837) (xy -6.886864 -7.070998) (xy -7.310420 -7.136702) (xy -7.722186 -7.190791) (xy -8.128480 -7.233833) (xy -8.535617 -7.266392) (xy -8.949915 -7.289036) (xy -9.377690 -7.302329)
     (xy -9.490364 -7.304301) (xy -9.878231 -7.306094) (xy -10.253303 -7.299438) (xy -10.624399 -7.284008) (xy -11.000339 -7.259477) (xy -11.240241 -7.239507) (xy -11.338389 -7.231405) (xy -11.417494 -7.226846)
     (xy -11.481375 -7.226141) (xy -11.533853 -7.229597) (xy -11.578746 -7.237526) (xy -11.619876 -7.250236) (xy -11.661061 -7.268036) (xy -11.674555 -7.274696) (xy -11.757319 -7.328700) (xy -11.825214 -7.398002)
     (xy -11.876578 -7.479293) (xy -11.909749 -7.569266) (xy -11.923064 -7.664612) (xy -11.916130 -7.755422) (xy -11.886635 -7.856225) (xy -11.838152 -7.944547) (xy -11.771782 -8.018949) (xy -11.688625 -8.077994)
     (xy -11.656890 -8.094237) (xy -11.622519 -8.108794) (xy -11.586799 -8.119997) (xy -11.544288 -8.129003) (xy -11.489541 -8.136969) (xy -11.418135 -8.144946) (xy -11.138993 -8.170132) (xy -10.841547 -8.190451)
     (xy -10.530076 -8.205844) (xy -10.208860 -8.216251) (xy -9.882179 -8.221614) (xy -9.554313 -8.221872) (xy -9.229542 -8.216968) )(layer F.SilkS) (width  0.010000)
  )
)
