EESchema Schematic File Version 4
EELAYER 30 0
EELAYER END
$Descr A4 11693 8268
encoding utf-8
Sheet 1 1
Title "Dumbo"
Date "2020-04-23"
Rev "0.1"
Comp "Trip-Trap"
Comment1 ""
Comment2 ""
Comment3 ""
Comment4 ""
$EndDescr
$Comp
L dumbo_pcb-rescue:MX-NoLED-MX_Alps_Hybrid MX2
U 1 1 5EA3AD4B
P 2100 1350
F 0 "MX2" H 2133 1573 60  0000 C CNN
F 1 "MX-NoLED" H 2133 1499 20  0000 C CNN
F 2 "dumbo_pcb:MX-1U-choc-reversible-noLED" H 1475 1325 60  0001 C CNN
F 3 "" H 1475 1325 60  0001 C CNN
	1    2100 1350
	1    0    0    -1  
$EndComp
$Comp
L Device:D_Small D2
U 1 1 5EA3AD51
P 2050 1675
F 0 "D2" V 2096 1607 50  0000 R CNN
F 1 "D_Small" V 2005 1607 50  0000 R CNN
F 2 "dumbo_pcb:D_SOD123_axial" V 2050 1675 50  0001 C CNN
F 3 "~" V 2050 1675 50  0001 C CNN
	1    2050 1675
	0    -1   -1   0   
$EndComp
Wire Wire Line
	2050 1500 2050 1575
Wire Wire Line
	2250 1300 2500 1300
$Comp
L dumbo_pcb-rescue:MX-NoLED-MX_Alps_Hybrid MX7
U 1 1 5EA3FEFF
P 1350 2350
F 0 "MX7" H 1383 2573 60  0000 C CNN
F 1 "MX-NoLED" H 1383 2499 20  0000 C CNN
F 2 "dumbo_pcb:MX-1U-choc-reversible-noLED" H 725 2325 60  0001 C CNN
F 3 "" H 725 2325 60  0001 C CNN
	1    1350 2350
	1    0    0    -1  
$EndComp
$Comp
L Device:D_Small D7
U 1 1 5EA3FF05
P 1300 2675
F 0 "D7" V 1346 2607 50  0000 R CNN
F 1 "D_Small" V 1255 2607 50  0000 R CNN
F 2 "dumbo_pcb:D_SOD123_axial" V 1300 2675 50  0001 C CNN
F 3 "~" V 1300 2675 50  0001 C CNN
	1    1300 2675
	0    -1   -1   0   
$EndComp
Wire Wire Line
	1300 2500 1300 2575
Wire Wire Line
	1500 2300 1750 2300
$Comp
L dumbo_pcb-rescue:MX-NoLED-MX_Alps_Hybrid MX8
U 1 1 5EA3FF0D
P 2100 2350
F 0 "MX8" H 2133 2573 60  0000 C CNN
F 1 "MX-NoLED" H 2133 2499 20  0000 C CNN
F 2 "dumbo_pcb:MX-1U-choc-reversible-noLED" H 1475 2325 60  0001 C CNN
F 3 "" H 1475 2325 60  0001 C CNN
	1    2100 2350
	1    0    0    -1  
$EndComp
$Comp
L Device:D_Small D8
U 1 1 5EA3FF13
P 2050 2675
F 0 "D8" V 2096 2607 50  0000 R CNN
F 1 "D_Small" V 2005 2607 50  0000 R CNN
F 2 "dumbo_pcb:D_SOD123_axial" V 2050 2675 50  0001 C CNN
F 3 "~" V 2050 2675 50  0001 C CNN
	1    2050 2675
	0    -1   -1   0   
$EndComp
Wire Wire Line
	2050 2500 2050 2575
Wire Wire Line
	2250 2300 2500 2300
$Comp
L dumbo_pcb-rescue:MX-NoLED-MX_Alps_Hybrid MX14
U 1 1 5EA4B897
P 2100 3350
F 0 "MX14" H 2133 3573 60  0000 C CNN
F 1 "MX-NoLED" H 2133 3499 20  0000 C CNN
F 2 "dumbo_pcb:MX-1U-choc-reversible-noLED" H 1475 3325 60  0001 C CNN
F 3 "" H 1475 3325 60  0001 C CNN
	1    2100 3350
	1    0    0    -1  
$EndComp
$Comp
L Device:D_Small D14
U 1 1 5EA4B89D
P 2050 3675
F 0 "D14" V 2096 3607 50  0000 R CNN
F 1 "D_Small" V 2005 3607 50  0000 R CNN
F 2 "dumbo_pcb:D_SOD123_axial" V 2050 3675 50  0001 C CNN
F 3 "~" V 2050 3675 50  0001 C CNN
	1    2050 3675
	0    -1   -1   0   
$EndComp
Wire Wire Line
	2050 3500 2050 3575
Wire Wire Line
	2250 3300 2500 3300
$Comp
L dumbo_pcb-rescue:MX-NoLED-MX_Alps_Hybrid MX3
U 1 1 5EA50F73
P 2850 1350
F 0 "MX3" H 2883 1573 60  0000 C CNN
F 1 "MX-NoLED" H 2883 1499 20  0000 C CNN
F 2 "dumbo_pcb:MX-1U-choc-reversible-noLED" H 2225 1325 60  0001 C CNN
F 3 "" H 2225 1325 60  0001 C CNN
	1    2850 1350
	1    0    0    -1  
$EndComp
$Comp
L Device:D_Small D3
U 1 1 5EA50F79
P 2800 1675
F 0 "D3" V 2846 1607 50  0000 R CNN
F 1 "D_Small" V 2755 1607 50  0000 R CNN
F 2 "dumbo_pcb:D_SOD123_axial" V 2800 1675 50  0001 C CNN
F 3 "~" V 2800 1675 50  0001 C CNN
	1    2800 1675
	0    -1   -1   0   
$EndComp
Wire Wire Line
	2800 1500 2800 1575
Wire Wire Line
	3000 1300 3250 1300
$Comp
L dumbo_pcb-rescue:MX-NoLED-MX_Alps_Hybrid MX4
U 1 1 5EA50F81
P 3600 1350
F 0 "MX4" H 3633 1573 60  0000 C CNN
F 1 "MX-NoLED" H 3633 1499 20  0000 C CNN
F 2 "dumbo_pcb:MX-1U-choc-reversible-noLED" H 2975 1325 60  0001 C CNN
F 3 "" H 2975 1325 60  0001 C CNN
	1    3600 1350
	1    0    0    -1  
$EndComp
$Comp
L Device:D_Small D4
U 1 1 5EA50F87
P 3550 1675
F 0 "D4" V 3596 1607 50  0000 R CNN
F 1 "D_Small" V 3505 1607 50  0000 R CNN
F 2 "dumbo_pcb:D_SOD123_axial" V 3550 1675 50  0001 C CNN
F 3 "~" V 3550 1675 50  0001 C CNN
	1    3550 1675
	0    -1   -1   0   
$EndComp
Wire Wire Line
	3550 1500 3550 1575
Wire Wire Line
	3750 1300 4000 1300
$Comp
L dumbo_pcb-rescue:MX-NoLED-MX_Alps_Hybrid MX9
U 1 1 5EA50F8F
P 2850 2350
F 0 "MX9" H 2883 2573 60  0000 C CNN
F 1 "MX-NoLED" H 2883 2499 20  0000 C CNN
F 2 "dumbo_pcb:MX-1U-choc-reversible-noLED" H 2225 2325 60  0001 C CNN
F 3 "" H 2225 2325 60  0001 C CNN
	1    2850 2350
	1    0    0    -1  
$EndComp
$Comp
L Device:D_Small D9
U 1 1 5EA50F95
P 2800 2675
F 0 "D9" V 2846 2607 50  0000 R CNN
F 1 "D_Small" V 2755 2607 50  0000 R CNN
F 2 "dumbo_pcb:D_SOD123_axial" V 2800 2675 50  0001 C CNN
F 3 "~" V 2800 2675 50  0001 C CNN
	1    2800 2675
	0    -1   -1   0   
$EndComp
Wire Wire Line
	2800 2500 2800 2575
Wire Wire Line
	3000 2300 3250 2300
$Comp
L dumbo_pcb-rescue:MX-NoLED-MX_Alps_Hybrid MX10
U 1 1 5EA50F9D
P 3600 2350
F 0 "MX10" H 3633 2573 60  0000 C CNN
F 1 "MX-NoLED" H 3633 2499 20  0000 C CNN
F 2 "dumbo_pcb:MX-1U-choc-reversible-noLED" H 2975 2325 60  0001 C CNN
F 3 "" H 2975 2325 60  0001 C CNN
	1    3600 2350
	1    0    0    -1  
$EndComp
$Comp
L Device:D_Small D10
U 1 1 5EA50FA3
P 3550 2675
F 0 "D10" V 3596 2607 50  0000 R CNN
F 1 "D_Small" V 3505 2607 50  0000 R CNN
F 2 "dumbo_pcb:D_SOD123_axial" V 3550 2675 50  0001 C CNN
F 3 "~" V 3550 2675 50  0001 C CNN
	1    3550 2675
	0    -1   -1   0   
$EndComp
Wire Wire Line
	3550 2500 3550 2575
Wire Wire Line
	3750 2300 4000 2300
$Comp
L dumbo_pcb-rescue:MX-NoLED-MX_Alps_Hybrid MX15
U 1 1 5EA50FAB
P 2850 3350
F 0 "MX15" H 2883 3573 60  0000 C CNN
F 1 "MX-NoLED" H 2883 3499 20  0000 C CNN
F 2 "dumbo_pcb:MX-1U-choc-reversible-noLED" H 2225 3325 60  0001 C CNN
F 3 "" H 2225 3325 60  0001 C CNN
	1    2850 3350
	1    0    0    -1  
$EndComp
$Comp
L Device:D_Small D15
U 1 1 5EA50FB1
P 2800 3675
F 0 "D15" V 2846 3607 50  0000 R CNN
F 1 "D_Small" V 2755 3607 50  0000 R CNN
F 2 "dumbo_pcb:D_SOD123_axial" V 2800 3675 50  0001 C CNN
F 3 "~" V 2800 3675 50  0001 C CNN
	1    2800 3675
	0    -1   -1   0   
$EndComp
Wire Wire Line
	2800 3500 2800 3575
Wire Wire Line
	3000 3300 3250 3300
$Comp
L dumbo_pcb-rescue:MX-NoLED-MX_Alps_Hybrid MX16
U 1 1 5EA50FB9
P 3600 3350
F 0 "MX16" H 3633 3573 60  0000 C CNN
F 1 "MX-NoLED" H 3633 3499 20  0000 C CNN
F 2 "dumbo_pcb:MX-1U-choc-reversible-noLED" H 2975 3325 60  0001 C CNN
F 3 "" H 2975 3325 60  0001 C CNN
	1    3600 3350
	1    0    0    -1  
$EndComp
$Comp
L Device:D_Small D16
U 1 1 5EA50FBF
P 3550 3675
F 0 "D16" V 3596 3607 50  0000 R CNN
F 1 "D_Small" V 3505 3607 50  0000 R CNN
F 2 "dumbo_pcb:D_SOD123_axial" V 3550 3675 50  0001 C CNN
F 3 "~" V 3550 3675 50  0001 C CNN
	1    3550 3675
	0    -1   -1   0   
$EndComp
Wire Wire Line
	3550 3500 3550 3575
Wire Wire Line
	3750 3300 4000 3300
$Comp
L dumbo_pcb-rescue:MX-NoLED-MX_Alps_Hybrid MX5
U 1 1 5EA5600B
P 4350 1350
F 0 "MX5" H 4383 1573 60  0000 C CNN
F 1 "MX-NoLED" H 4383 1499 20  0000 C CNN
F 2 "dumbo_pcb:MX-1U-choc-reversible-noLED" H 3725 1325 60  0001 C CNN
F 3 "" H 3725 1325 60  0001 C CNN
	1    4350 1350
	1    0    0    -1  
$EndComp
$Comp
L Device:D_Small D5
U 1 1 5EA56011
P 4300 1675
F 0 "D5" V 4346 1607 50  0000 R CNN
F 1 "D_Small" V 4255 1607 50  0000 R CNN
F 2 "dumbo_pcb:D_SOD123_axial" V 4300 1675 50  0001 C CNN
F 3 "~" V 4300 1675 50  0001 C CNN
	1    4300 1675
	0    -1   -1   0   
$EndComp
Wire Wire Line
	4300 1500 4300 1575
Wire Wire Line
	4500 1300 4750 1300
$Comp
L dumbo_pcb-rescue:MX-NoLED-MX_Alps_Hybrid MX6
U 1 1 5EA56019
P 5100 1350
F 0 "MX6" H 5133 1573 60  0000 C CNN
F 1 "MX-NoLED" H 5133 1499 20  0000 C CNN
F 2 "dumbo_pcb:MX-1U-choc-reversible-noLED" H 4475 1325 60  0001 C CNN
F 3 "" H 4475 1325 60  0001 C CNN
	1    5100 1350
	1    0    0    -1  
$EndComp
$Comp
L Device:D_Small D6
U 1 1 5EA5601F
P 5050 1675
F 0 "D6" V 5096 1607 50  0000 R CNN
F 1 "D_Small" V 5005 1607 50  0000 R CNN
F 2 "dumbo_pcb:D_SOD123_axial" V 5050 1675 50  0001 C CNN
F 3 "~" V 5050 1675 50  0001 C CNN
	1    5050 1675
	0    -1   -1   0   
$EndComp
Wire Wire Line
	5050 1500 5050 1575
Wire Wire Line
	5250 1300 5500 1300
$Comp
L dumbo_pcb-rescue:MX-NoLED-MX_Alps_Hybrid MX11
U 1 1 5EA56027
P 4350 2350
F 0 "MX11" H 4383 2573 60  0000 C CNN
F 1 "MX-NoLED" H 4383 2499 20  0000 C CNN
F 2 "dumbo_pcb:MX-1U-choc-reversible-noLED" H 3725 2325 60  0001 C CNN
F 3 "" H 3725 2325 60  0001 C CNN
	1    4350 2350
	1    0    0    -1  
$EndComp
$Comp
L Device:D_Small D11
U 1 1 5EA5602D
P 4300 2675
F 0 "D11" V 4346 2607 50  0000 R CNN
F 1 "D_Small" V 4255 2607 50  0000 R CNN
F 2 "dumbo_pcb:D_SOD123_axial" V 4300 2675 50  0001 C CNN
F 3 "~" V 4300 2675 50  0001 C CNN
	1    4300 2675
	0    -1   -1   0   
$EndComp
Wire Wire Line
	4300 2500 4300 2575
Wire Wire Line
	4500 2300 4750 2300
$Comp
L dumbo_pcb-rescue:MX-NoLED-MX_Alps_Hybrid MX12
U 1 1 5EA56035
P 5100 2350
F 0 "MX12" H 5133 2573 60  0000 C CNN
F 1 "MX-NoLED" H 5133 2499 20  0000 C CNN
F 2 "dumbo_pcb:MX-1U-choc-reversible-noLED" H 4475 2325 60  0001 C CNN
F 3 "" H 4475 2325 60  0001 C CNN
	1    5100 2350
	1    0    0    -1  
$EndComp
$Comp
L Device:D_Small D12
U 1 1 5EA5603B
P 5050 2675
F 0 "D12" V 5096 2607 50  0000 R CNN
F 1 "D_Small" V 5005 2607 50  0000 R CNN
F 2 "dumbo_pcb:D_SOD123_axial" V 5050 2675 50  0001 C CNN
F 3 "~" V 5050 2675 50  0001 C CNN
	1    5050 2675
	0    -1   -1   0   
$EndComp
Wire Wire Line
	5050 2500 5050 2575
Wire Wire Line
	5250 2300 5500 2300
$Comp
L dumbo_pcb-rescue:MX-NoLED-MX_Alps_Hybrid MX17
U 1 1 5EA56043
P 4350 3350
F 0 "MX17" H 4383 3573 60  0000 C CNN
F 1 "MX-NoLED" H 4383 3499 20  0000 C CNN
F 2 "dumbo_pcb:MX-1U-choc-reversible-noLED" H 3725 3325 60  0001 C CNN
F 3 "" H 3725 3325 60  0001 C CNN
	1    4350 3350
	1    0    0    -1  
$EndComp
$Comp
L Device:D_Small D17
U 1 1 5EA56049
P 4300 3675
F 0 "D17" V 4346 3607 50  0000 R CNN
F 1 "D_Small" V 4255 3607 50  0000 R CNN
F 2 "dumbo_pcb:D_SOD123_axial" V 4300 3675 50  0001 C CNN
F 3 "~" V 4300 3675 50  0001 C CNN
	1    4300 3675
	0    -1   -1   0   
$EndComp
Wire Wire Line
	4300 3500 4300 3575
Wire Wire Line
	4500 3300 4750 3300
$Comp
L dumbo_pcb-rescue:MX-NoLED-MX_Alps_Hybrid MX18
U 1 1 5EA56051
P 5100 3350
F 0 "MX18" H 5133 3573 60  0000 C CNN
F 1 "MX-NoLED" H 5133 3499 20  0000 C CNN
F 2 "dumbo_pcb:MX-1U-choc-reversible-noLED" H 4475 3325 60  0001 C CNN
F 3 "" H 4475 3325 60  0001 C CNN
	1    5100 3350
	1    0    0    -1  
$EndComp
$Comp
L Device:D_Small D18
U 1 1 5EA56057
P 5050 3675
F 0 "D18" V 5096 3607 50  0000 R CNN
F 1 "D_Small" V 5005 3607 50  0000 R CNN
F 2 "dumbo_pcb:D_SOD123_axial" V 5050 3675 50  0001 C CNN
F 3 "~" V 5050 3675 50  0001 C CNN
	1    5050 3675
	0    -1   -1   0   
$EndComp
Wire Wire Line
	5050 3500 5050 3575
Wire Wire Line
	5250 3300 5500 3300
$Comp
L dumbo_pcb-rescue:MX-NoLED-MX_Alps_Hybrid MX20
U 1 1 5EA5BE8B
P 3600 4350
F 0 "MX20" H 3633 4573 60  0000 C CNN
F 1 "MX-NoLED" H 3633 4499 20  0000 C CNN
F 2 "dumbo_pcb:MX-1.5U-Vertical" H 2975 4325 60  0001 C CNN
F 3 "" H 2975 4325 60  0001 C CNN
	1    3600 4350
	1    0    0    -1  
$EndComp
$Comp
L Device:D_Small D20
U 1 1 5EA5BE91
P 3550 4675
F 0 "D20" V 3596 4607 50  0000 R CNN
F 1 "D_Small" V 3505 4607 50  0000 R CNN
F 2 "dumbo_pcb:D_SOD123_axial" V 3550 4675 50  0001 C CNN
F 3 "~" V 3550 4675 50  0001 C CNN
	1    3550 4675
	0    -1   -1   0   
$EndComp
Wire Wire Line
	3550 4500 3550 4575
Wire Wire Line
	3750 4300 4000 4300
$Comp
L dumbo_pcb-rescue:MX-NoLED-MX_Alps_Hybrid MX21
U 1 1 5EA5BE99
P 4350 4350
F 0 "MX21" H 4383 4573 60  0000 C CNN
F 1 "MX-NoLED" H 4383 4499 20  0000 C CNN
F 2 "dumbo_pcb:MX-1.5U-Vertical" H 3725 4325 60  0001 C CNN
F 3 "" H 3725 4325 60  0001 C CNN
	1    4350 4350
	1    0    0    -1  
$EndComp
$Comp
L Device:D_Small D21
U 1 1 5EA5BE9F
P 4300 4675
F 0 "D21" V 4346 4607 50  0000 R CNN
F 1 "D_Small" V 4255 4607 50  0000 R CNN
F 2 "dumbo_pcb:D_SOD123_axial" V 4300 4675 50  0001 C CNN
F 3 "~" V 4300 4675 50  0001 C CNN
	1    4300 4675
	0    -1   -1   0   
$EndComp
Wire Wire Line
	4300 4500 4300 4575
Wire Wire Line
	4500 4300 4750 4300
$Comp
L dumbo_pcb-rescue:MX-NoLED-MX_Alps_Hybrid MX22
U 1 1 5EA5BEA7
P 5100 4350
F 0 "MX22" H 5133 4573 60  0000 C CNN
F 1 "MX-NoLED" H 5133 4499 20  0000 C CNN
F 2 "dumbo_pcb:MX-1U-choc-reversible-noLED" H 4475 4325 60  0001 C CNN
F 3 "" H 4475 4325 60  0001 C CNN
	1    5100 4350
	1    0    0    -1  
$EndComp
$Comp
L Device:D_Small D22
U 1 1 5EA5BEAD
P 5050 4675
F 0 "D22" V 5096 4607 50  0000 R CNN
F 1 "D_Small" V 5005 4607 50  0000 R CNN
F 2 "dumbo_pcb:D_SOD123_axial" V 5050 4675 50  0001 C CNN
F 3 "~" V 5050 4675 50  0001 C CNN
	1    5050 4675
	0    -1   -1   0   
$EndComp
Wire Wire Line
	5050 4500 5050 4575
Wire Wire Line
	5250 4300 5500 4300
Wire Wire Line
	1750 3300 1750 2300
Connection ~ 1750 2300
Wire Wire Line
	2500 3300 2500 2300
Connection ~ 2500 1300
Wire Wire Line
	2500 1300 2500 1000
Connection ~ 2500 2300
Wire Wire Line
	2500 2300 2500 1300
Wire Wire Line
	3250 3300 3250 2300
Connection ~ 3250 1300
Wire Wire Line
	3250 1300 3250 1000
Connection ~ 3250 2300
Wire Wire Line
	3250 2300 3250 1300
Wire Wire Line
	4000 1000 4000 1300
Connection ~ 4000 1300
Wire Wire Line
	4000 1300 4000 2300
Connection ~ 4000 2300
Wire Wire Line
	4000 2300 4000 3300
Wire Wire Line
	4750 1000 4750 1300
Connection ~ 4750 1300
Wire Wire Line
	4750 1300 4750 2300
Connection ~ 4750 2300
Wire Wire Line
	4750 2300 4750 3300
Wire Wire Line
	4000 4300 4000 3300
Connection ~ 4000 3300
Wire Wire Line
	4750 4300 4750 3300
Connection ~ 4750 3300
Wire Wire Line
	5500 4300 5500 3300
Connection ~ 5500 1300
Wire Wire Line
	5500 1300 5500 1000
Connection ~ 5500 2300
Wire Wire Line
	5500 2300 5500 1300
Connection ~ 5500 3300
Wire Wire Line
	5500 3300 5500 2300
Wire Wire Line
	5050 1775 4300 1775
Connection ~ 2050 1775
Connection ~ 2800 1775
Wire Wire Line
	2800 1775 2050 1775
Connection ~ 3550 1775
Wire Wire Line
	3550 1775 2800 1775
Connection ~ 4300 1775
Wire Wire Line
	4300 1775 3550 1775
Wire Wire Line
	1125 2775 1300 2775
Connection ~ 1300 2775
Wire Wire Line
	1300 2775 2050 2775
Connection ~ 2050 2775
Wire Wire Line
	2050 2775 2800 2775
Connection ~ 2800 2775
Wire Wire Line
	2800 2775 3550 2775
Connection ~ 3550 2775
Wire Wire Line
	3550 2775 4300 2775
Connection ~ 4300 2775
Wire Wire Line
	4300 2775 5050 2775
Connection ~ 2050 3775
Wire Wire Line
	2050 3775 2800 3775
Connection ~ 2800 3775
Wire Wire Line
	2800 3775 3550 3775
Connection ~ 3550 3775
Wire Wire Line
	3550 3775 4300 3775
Connection ~ 4300 3775
Wire Wire Line
	4300 3775 5050 3775
Wire Wire Line
	5050 4775 4300 4775
Connection ~ 3550 4775
Wire Wire Line
	3550 4775 2800 4775
Connection ~ 4300 4775
Wire Wire Line
	4300 4775 3550 4775
Text GLabel 1750 925  1    50   Input ~ 0
col0
Text GLabel 2500 1000 1    50   Input ~ 0
col1
Text GLabel 3250 1000 1    50   Input ~ 0
col2
Text GLabel 4000 1000 1    50   Input ~ 0
col3
Text GLabel 4750 1000 1    50   Input ~ 0
col4
Text GLabel 5500 1000 1    50   Input ~ 0
col5
Text GLabel 1125 2775 0    50   Input ~ 0
row1
Text GLabel 1125 1775 0    50   Input ~ 0
row0
Text GLabel 1125 3775 0    50   Input ~ 0
row2
Text GLabel 1125 4775 0    50   Input ~ 0
row3
Text GLabel 7700 1900 0    50   Input ~ 0
ENC_A
Text GLabel 7700 2300 0    50   Input ~ 0
ENC_B
Text GLabel 9100 2300 2    50   Input ~ 0
col0
Text GLabel 9100 2200 2    50   Input ~ 0
col1
Text GLabel 9100 2100 2    50   Input ~ 0
col2
Text GLabel 9100 2000 2    50   Input ~ 0
col3
Text GLabel 9100 1900 2    50   Input ~ 0
col4
Text GLabel 9100 1800 2    50   Input ~ 0
col5
Text GLabel 7700 1800 0    50   Input ~ 0
row0
Text GLabel 7700 2000 0    50   Input ~ 0
row1
Text GLabel 7700 2100 0    50   Input ~ 0
row2
$Comp
L dumbo_pcb-rescue:ProMicro-promicro U1
U 1 1 5EA03E18
P 8400 1950
F 0 "U1" H 8400 2987 60  0000 C CNN
F 1 "ProMicro" H 8400 2881 60  0000 C CNN
F 2 "dumbo_pcb:ProMicro_rev" H 8500 900 60  0001 C CNN
F 3 "" H 8500 900 60  0000 C CNN
	1    8400 1950
	1    0    0    -1  
$EndComp
Text GLabel 7700 2200 0    50   Input ~ 0
row3
Text GLabel 7700 1300 0    50   Input ~ 0
DATA
Wire Wire Line
	7700 1400 7700 1450
$Comp
L power:GND #PWR0104
U 1 1 5EA2BDB4
P 7325 1375
F 0 "#PWR0104" H 7325 1125 50  0001 C CNN
F 1 "GND" H 7330 1202 50  0000 C CNN
F 2 "" H 7325 1375 50  0001 C CNN
F 3 "" H 7325 1375 50  0001 C CNN
	1    7325 1375
	1    0    0    -1  
$EndComp
Wire Wire Line
	7325 1375 7450 1375
Wire Wire Line
	7450 1375 7450 1450
Wire Wire Line
	7450 1450 7700 1450
Connection ~ 7700 1450
Wire Wire Line
	7700 1450 7700 1500
Wire Wire Line
	7700 1600 6550 1600
Wire Wire Line
	7700 1700 6975 1700
Text GLabel 6550 1700 0    50   Input ~ 0
SCL
Text GLabel 6550 1600 0    50   Input ~ 0
SDA
$Comp
L Device:R_Small R2
U 1 1 5EA3441C
P 6675 1375
F 0 "R2" H 6734 1421 50  0000 L CNN
F 1 "4700" H 6734 1330 50  0000 L CNN
F 2 "dumbo_pcb:Resistor-Hybrid" H 6675 1375 50  0001 C CNN
F 3 "~" H 6675 1375 50  0001 C CNN
	1    6675 1375
	1    0    0    -1  
$EndComp
$Comp
L Device:R_Small R1
U 1 1 5EA3513F
P 6975 1150
F 0 "R1" H 7034 1196 50  0000 L CNN
F 1 "4700" H 7034 1105 50  0000 L CNN
F 2 "dumbo_pcb:Resistor-Hybrid" H 6975 1150 50  0001 C CNN
F 3 "~" H 6975 1150 50  0001 C CNN
	1    6975 1150
	1    0    0    -1  
$EndComp
Wire Wire Line
	6675 1700 6675 1475
Connection ~ 6675 1700
Wire Wire Line
	6675 1700 6550 1700
Wire Wire Line
	6975 1250 6975 1700
Connection ~ 6975 1700
Wire Wire Line
	6975 1700 6675 1700
$Comp
L power:VCC #PWR0105
U 1 1 5EA3A567
P 6825 975
F 0 "#PWR0105" H 6825 825 50  0001 C CNN
F 1 "VCC" H 6842 1148 50  0000 C CNN
F 2 "" H 6825 975 50  0001 C CNN
F 3 "" H 6825 975 50  0001 C CNN
	1    6825 975 
	1    0    0    -1  
$EndComp
Wire Wire Line
	6825 975  6975 975 
Wire Wire Line
	6975 975  6975 1050
Wire Wire Line
	6825 975  6675 975 
Wire Wire Line
	6675 975  6675 1275
Connection ~ 6825 975 
Text GLabel 9100 1400 2    50   Input ~ 0
RESET
$Comp
L power:GND #PWR0106
U 1 1 5EA411DE
P 9500 1250
F 0 "#PWR0106" H 9500 1000 50  0001 C CNN
F 1 "GND" H 9505 1077 50  0000 C CNN
F 2 "" H 9500 1250 50  0001 C CNN
F 3 "" H 9500 1250 50  0001 C CNN
	1    9500 1250
	1    0    0    -1  
$EndComp
Wire Wire Line
	9100 1300 9375 1300
Wire Wire Line
	9375 1300 9375 1250
Wire Wire Line
	9375 1250 9500 1250
$Comp
L power:VCC #PWR0107
U 1 1 5EA44C5B
P 9700 1450
F 0 "#PWR0107" H 9700 1300 50  0001 C CNN
F 1 "VCC" H 9717 1623 50  0000 C CNN
F 2 "" H 9700 1450 50  0001 C CNN
F 3 "" H 9700 1450 50  0001 C CNN
	1    9700 1450
	1    0    0    -1  
$EndComp
Wire Wire Line
	9100 1500 9700 1500
Wire Wire Line
	9700 1500 9700 1450
$Comp
L lily58-cache_mj-4pp-9:Lily58-cache_MJ-4PP-9 TRRS1
U 1 1 5EA48D81
P 7775 3125
F 0 "TRRS1" H 7732 3450 50  0000 C CNN
F 1 "TRRS" H 7732 3359 50  0000 C CNN
F 2 "dumbo_pcb:MJ-4PP-9_rev2" H 7775 3125 50  0001 C CNN
F 3 "~" H 7775 3125 50  0001 C CNN
	1    7775 3125
	1    0    0    -1  
$EndComp
$Comp
L power:VCC #PWR0108
U 1 1 5EA5FEB5
P 8425 2850
F 0 "#PWR0108" H 8425 2700 50  0001 C CNN
F 1 "VCC" H 8442 3023 50  0000 C CNN
F 2 "" H 8425 2850 50  0001 C CNN
F 3 "" H 8425 2850 50  0001 C CNN
	1    8425 2850
	1    0    0    -1  
$EndComp
$Comp
L power:GND #PWR0109
U 1 1 5EA66B6E
P 8425 3450
F 0 "#PWR0109" H 8425 3200 50  0001 C CNN
F 1 "GND" H 8430 3277 50  0000 C CNN
F 2 "" H 8425 3450 50  0001 C CNN
F 3 "" H 8425 3450 50  0001 C CNN
	1    8425 3450
	1    0    0    -1  
$EndComp
$Comp
L dumbo_pcb-rescue:Connector_Generic_Conn_01x01-corne-cherry-cache P1
U 1 1 5EA0A590
P 8675 2675
F 0 "P1" V 8639 2587 50  0000 R CNN
F 1 "SDA" V 8548 2587 50  0000 R CNN
F 2 "dumbo_pcb:PIN_1" H 8675 2675 50  0001 C CNN
F 3 "" H 8675 2675 50  0001 C CNN
	1    8675 2675
	0    -1   -1   0   
$EndComp
$Comp
L dumbo_pcb-rescue:Connector_Generic_Conn_01x01-corne-cherry-cache P2
U 1 1 5EA0D097
P 8675 3575
F 0 "P2" V 8547 3655 50  0000 L CNN
F 1 "SCL" V 8638 3655 50  0000 L CNN
F 2 "dumbo_pcb:PIN_1" H 8675 3575 50  0001 C CNN
F 3 "" H 8675 3575 50  0001 C CNN
	1    8675 3575
	0    1    1    0   
$EndComp
Wire Wire Line
	8225 3325 8675 3325
Wire Wire Line
	8675 3325 8675 3375
Wire Wire Line
	8225 2975 8675 2975
Wire Wire Line
	8675 2975 8675 2875
$Comp
L Device:Jumper_NC_Small JP1
U 1 1 5EA14859
P 9200 3325
F 0 "JP1" H 9200 3100 50  0000 C CNN
F 1 "Serial Jumper" H 9200 3191 50  0000 C CNN
F 2 "dumbo_pcb:SolderJumper-2_P1.3mm_Bridged_RoundedPad1.0x1.5mm" H 9200 3325 50  0001 C CNN
F 3 "~" H 9200 3325 50  0001 C CNN
	1    9200 3325
	-1   0    0    1   
$EndComp
Connection ~ 8675 3325
Text GLabel 9500 3325 2    50   Input ~ 0
DATA
NoConn ~ 9100 1200
NoConn ~ 7700 1200
$Comp
L Switch:SW_Push SW1
U 1 1 5EA85379
P 9600 4775
F 0 "SW1" H 9600 5060 50  0000 C CNN
F 1 "SW_Push" H 9600 4969 50  0000 C CNN
F 2 "dumbo_pcb:SW_Tactile_SPST_Angled_MJTP1117" H 9600 4975 50  0001 C CNN
F 3 "~" H 9600 4975 50  0001 C CNN
	1    9600 4775
	1    0    0    -1  
$EndComp
$Comp
L power:GND #PWR0110
U 1 1 5EA8921D
P 10050 4775
F 0 "#PWR0110" H 10050 4525 50  0001 C CNN
F 1 "GND" H 10055 4602 50  0000 C CNN
F 2 "" H 10050 4775 50  0001 C CNN
F 3 "" H 10050 4775 50  0001 C CNN
	1    10050 4775
	1    0    0    -1  
$EndComp
Wire Wire Line
	9800 4775 10050 4775
Text GLabel 9225 4775 0    50   Input ~ 0
RESET
Wire Wire Line
	9225 4775 9400 4775
$Comp
L dumbo_pcb-rescue:Connector_Generic_Conn_01x04-corne-cherry-cache J1
U 1 1 5EA97A4D
P 7250 4750
F 0 "J1" H 7168 4325 50  0000 C CNN
F 1 "OLED" H 7168 4416 50  0000 C CNN
F 2 "dumbo_pcb:OLED_4Pin" H 7250 4750 50  0001 C CNN
F 3 "" H 7250 4750 50  0001 C CNN
	1    7250 4750
	-1   0    0    1   
$EndComp
$Comp
L power:VCC #PWR0112
U 1 1 5EA9EEE7
P 8400 4775
F 0 "#PWR0112" H 8400 4625 50  0001 C CNN
F 1 "VCC" H 8417 4948 50  0000 C CNN
F 2 "" H 8400 4775 50  0001 C CNN
F 3 "" H 8400 4775 50  0001 C CNN
	1    8400 4775
	1    0    0    -1  
$EndComp
Wire Wire Line
	8675 3325 9100 3325
Wire Wire Line
	9300 3325 9500 3325
$Comp
L Device:Jumper_NC_Small JP2
U 1 1 5EAA81BE
P 7925 4450
F 0 "JP2" H 7925 4356 50  0000 C CNN
F 1 "GND" H 7925 4356 50  0001 C CNN
F 2 "dumbo_pcb:Jumper" H 7925 4450 50  0001 C CNN
F 3 "~" H 7925 4450 50  0001 C CNN
	1    7925 4450
	-1   0    0    1   
$EndComp
Text GLabel 8100 4850 2    50   Input ~ 0
SCL
Text GLabel 8100 5050 2    50   Input ~ 0
SDA
$Comp
L Device:Jumper_NC_Small JP4
U 1 1 5EAB7EC3
P 7925 4850
F 0 "JP4" H 7925 4756 50  0000 C CNN
F 1 "SCL" H 7925 4756 50  0001 C CNN
F 2 "dumbo_pcb:Jumper" H 7925 4850 50  0001 C CNN
F 3 "~" H 7925 4850 50  0001 C CNN
	1    7925 4850
	-1   0    0    1   
$EndComp
$Comp
L Device:Jumper_NC_Small JP5
U 1 1 5EAB85EA
P 7925 5050
F 0 "JP5" H 7925 4956 50  0000 C CNN
F 1 "SDA" H 7925 4956 50  0001 C CNN
F 2 "dumbo_pcb:Jumper" H 7925 5050 50  0001 C CNN
F 3 "~" H 7925 5050 50  0001 C CNN
	1    7925 5050
	-1   0    0    1   
$EndComp
Wire Wire Line
	8025 4850 8100 4850
Wire Wire Line
	8100 5050 8025 5050
$Comp
L power:GND #PWR0113
U 1 1 5EAEA297
P 8475 5975
F 0 "#PWR0113" H 8475 5725 50  0001 C CNN
F 1 "GND" H 8480 5802 50  0000 C CNN
F 2 "" H 8475 5975 50  0001 C CNN
F 3 "" H 8475 5975 50  0001 C CNN
	1    8475 5975
	1    0    0    -1  
$EndComp
$Comp
L power:VCC #PWR0114
U 1 1 5EAEA29D
P 8475 5775
F 0 "#PWR0114" H 8475 5625 50  0001 C CNN
F 1 "VCC" H 8492 5948 50  0000 C CNN
F 2 "" H 8475 5775 50  0001 C CNN
F 3 "" H 8475 5775 50  0001 C CNN
	1    8475 5775
	1    0    0    -1  
$EndComp
$Comp
L Device:Jumper_NC_Small JP9
U 1 1 5EAEA2A3
P 7925 5975
F 0 "JP9" H 7925 5881 50  0000 C CNN
F 1 "GND" H 7925 5881 50  0001 C CNN
F 2 "dumbo_pcb:Jumper" H 7925 5975 50  0001 C CNN
F 3 "~" H 7925 5975 50  0001 C CNN
	1    7925 5975
	-1   0    0    1   
$EndComp
Text GLabel 8100 5575 2    50   Input ~ 0
SCL
Text GLabel 8100 5375 2    50   Input ~ 0
SDA
$Comp
L Device:Jumper_NC_Small JP8
U 1 1 5EAEA2AB
P 7925 5775
F 0 "JP8" H 7925 5681 50  0000 C CNN
F 1 "VCC" H 7925 5681 50  0001 C CNN
F 2 "dumbo_pcb:Jumper" H 7925 5775 50  0001 C CNN
F 3 "~" H 7925 5775 50  0001 C CNN
	1    7925 5775
	-1   0    0    1   
$EndComp
$Comp
L Device:Jumper_NC_Small JP7
U 1 1 5EAEA2B1
P 7925 5575
F 0 "JP7" H 7925 5481 50  0000 C CNN
F 1 "SCL" H 7925 5481 50  0001 C CNN
F 2 "dumbo_pcb:Jumper" H 7925 5575 50  0001 C CNN
F 3 "~" H 7925 5575 50  0001 C CNN
	1    7925 5575
	-1   0    0    1   
$EndComp
$Comp
L Device:Jumper_NC_Small JP6
U 1 1 5EAEA2B7
P 7925 5375
F 0 "JP6" H 7925 5281 50  0000 C CNN
F 1 "SDA" H 7925 5281 50  0001 C CNN
F 2 "dumbo_pcb:Jumper" H 7925 5375 50  0001 C CNN
F 3 "~" H 7925 5375 50  0001 C CNN
	1    7925 5375
	-1   0    0    1   
$EndComp
Wire Wire Line
	8025 5575 8100 5575
Wire Wire Line
	8100 5375 8025 5375
Wire Wire Line
	8025 5975 8475 5975
Wire Wire Line
	7825 4750 7825 4850
Wire Wire Line
	7775 4850 7775 5050
Wire Wire Line
	7775 5050 7825 5050
Wire Wire Line
	7825 4550 7825 4450
Wire Wire Line
	7450 4550 7725 4550
Wire Wire Line
	7450 4650 7650 4650
Wire Wire Line
	7450 4750 7575 4750
Wire Wire Line
	7450 4850 7500 4850
Wire Wire Line
	7825 5375 7725 5375
Wire Wire Line
	7725 5375 7725 4550
Connection ~ 7725 4550
Wire Wire Line
	7725 4550 7825 4550
Wire Wire Line
	7825 5575 7650 5575
Wire Wire Line
	7650 5575 7650 4650
Connection ~ 7650 4650
Wire Wire Line
	7650 4650 7825 4650
Wire Wire Line
	7825 5775 7575 5775
Wire Wire Line
	7575 5775 7575 4750
Connection ~ 7575 4750
Wire Wire Line
	7575 4750 7825 4750
Wire Wire Line
	7825 5975 7500 5975
Wire Wire Line
	7500 5975 7500 4850
Connection ~ 7500 4850
Wire Wire Line
	7500 4850 7775 4850
Wire Wire Line
	8225 3125 8425 3125
Wire Wire Line
	8425 3125 8425 2850
Wire Wire Line
	8225 3225 8425 3225
Wire Wire Line
	8425 3225 8425 3450
$Comp
L dumbo_pcb-rescue:MX-NoLED_encoder-MX_Alps_Hybrid MX19
U 1 1 5EAC0994
P 2850 4350
F 0 "MX19" H 2883 4573 60  0000 C CNN
F 1 "MX-NoLED" H 2883 4499 20  0000 C CNN
F 2 "dumbo_pcb:MX-1U-choc-reversible-noLED_encoder" H 2225 4325 60  0001 C CNN
F 3 "" H 2225 4325 60  0001 C CNN
	1    2850 4350
	1    0    0    -1  
$EndComp
$Comp
L Device:D_Small D19
U 1 1 5EAC099A
P 2800 4675
F 0 "D19" V 2846 4607 50  0000 R CNN
F 1 "D_Small" V 2755 4607 50  0000 R CNN
F 2 "dumbo_pcb:D_SOD123_axial" V 2800 4675 50  0001 C CNN
F 3 "~" V 2800 4675 50  0001 C CNN
	1    2800 4675
	0    -1   -1   0   
$EndComp
Wire Wire Line
	2800 4500 2800 4575
Wire Wire Line
	3000 4300 3250 4300
Wire Wire Line
	3250 4300 3250 3300
Connection ~ 3250 3300
Connection ~ 2800 4775
Wire Wire Line
	2800 4775 1125 4775
Text GLabel 2650 4200 0    50   Input ~ 0
ENC_A1
Text GLabel 2650 4400 0    50   Input ~ 0
ENC_B2
$Comp
L gnd:GND #PWR0101
U 1 1 5EACEB9A
P 2250 4325
F 0 "#PWR0101" H 2250 4075 50  0001 C CNN
F 1 "GND" H 2250 4414 50  0000 C CNN
F 2 "" H 2250 4325 50  0001 C CNN
F 3 "" H 2250 4325 50  0001 C CNN
	1    2250 4325
	1    0    0    -1  
$EndComp
Wire Wire Line
	2650 4300 2250 4300
Wire Wire Line
	2250 4300 2250 4325
Wire Wire Line
	1125 3775 1300 3775
$Comp
L dumbo_pcb-rescue:MX-NoLED_encoder-MX_Alps_Hybrid MX13
U 1 1 5EAF4F34
P 1350 3350
F 0 "MX13" H 1383 3573 60  0000 C CNN
F 1 "MX-NoLED" H 1383 3499 20  0000 C CNN
F 2 "dumbo_pcb:MX-1U-choc-reversible-noLED_encoder" H 725 3325 60  0001 C CNN
F 3 "" H 725 3325 60  0001 C CNN
	1    1350 3350
	1    0    0    -1  
$EndComp
$Comp
L Device:D_Small D13
U 1 1 5EAF4F3A
P 1300 3675
F 0 "D13" V 1346 3607 50  0000 R CNN
F 1 "D_Small" V 1255 3607 50  0000 R CNN
F 2 "dumbo_pcb:D_SOD123_axial" V 1300 3675 50  0001 C CNN
F 3 "~" V 1300 3675 50  0001 C CNN
	1    1300 3675
	0    -1   -1   0   
$EndComp
Wire Wire Line
	1300 3500 1300 3575
Wire Wire Line
	1500 3300 1750 3300
Text GLabel 1150 3200 0    50   Input ~ 0
ENC_A
Text GLabel 1150 3400 0    50   Input ~ 0
ENC_B
$Comp
L gnd:GND #PWR0115
U 1 1 5EAF4F44
P 750 3325
F 0 "#PWR0115" H 750 3075 50  0001 C CNN
F 1 "GND" H 750 3414 50  0000 C CNN
F 2 "" H 750 3325 50  0001 C CNN
F 3 "" H 750 3325 50  0001 C CNN
	1    750  3325
	1    0    0    -1  
$EndComp
Wire Wire Line
	1150 3300 750  3300
Wire Wire Line
	750  3300 750  3325
Connection ~ 1300 3775
Wire Wire Line
	1300 3775 2050 3775
Wire Wire Line
	1125 1775 1300 1775
Wire Wire Line
	1750 925  1750 1350
$Comp
L dumbo_pcb-rescue:MX-NoLED_encoder-MX_Alps_Hybrid MX1
U 1 1 5EB03963
P 1350 1400
F 0 "MX1" H 1383 1623 60  0000 C CNN
F 1 "MX-NoLED" H 1383 1549 20  0000 C CNN
F 2 "dumbo_pcb:MX-1U-choc-reversible-noLED_encoder" H 725 1375 60  0001 C CNN
F 3 "" H 725 1375 60  0001 C CNN
	1    1350 1400
	1    0    0    -1  
$EndComp
Text GLabel 1150 1250 0    50   Input ~ 0
ENC_A
Text GLabel 1150 1450 0    50   Input ~ 0
ENC_B
$Comp
L gnd:GND #PWR0116
U 1 1 5EB03973
P 750 1375
F 0 "#PWR0116" H 750 1125 50  0001 C CNN
F 1 "GND" H 750 1464 50  0000 C CNN
F 2 "" H 750 1375 50  0001 C CNN
F 3 "" H 750 1375 50  0001 C CNN
	1    750  1375
	1    0    0    -1  
$EndComp
Wire Wire Line
	1150 1350 750  1350
Wire Wire Line
	750  1350 750  1375
$Comp
L Device:D_Small D1
U 1 1 5EB03969
P 1300 1675
F 0 "D1" V 1346 1607 50  0000 R CNN
F 1 "D_Small" V 1255 1607 50  0000 R CNN
F 2 "dumbo_pcb:D_SOD123_axial" V 1300 1675 50  0001 C CNN
F 3 "~" V 1300 1675 50  0001 C CNN
	1    1300 1675
	0    -1   -1   0   
$EndComp
Connection ~ 1300 1775
Wire Wire Line
	1300 1775 2050 1775
Wire Wire Line
	1300 1550 1300 1575
Text GLabel 9100 1600 2    50   Input ~ 0
ENC_A1
Text GLabel 9100 1700 2    50   Input ~ 0
ENC_B2
$Comp
L power:GND #PWR0111
U 1 1 5EA9DE69
P 8400 4325
F 0 "#PWR0111" H 8400 4075 50  0001 C CNN
F 1 "GND" H 8405 4152 50  0000 C CNN
F 2 "" H 8400 4325 50  0001 C CNN
F 3 "" H 8400 4325 50  0001 C CNN
	1    8400 4325
	1    0    0    -1  
$EndComp
Wire Wire Line
	8025 4325 8400 4325
Wire Wire Line
	8025 4325 8025 4450
Wire Wire Line
	8025 4650 8325 4650
Wire Wire Line
	8325 4650 8325 4775
Wire Wire Line
	8325 4775 8400 4775
Wire Wire Line
	8025 5775 8475 5775
$Comp
L Switch:SW_SPST SW2
U 1 1 5EBB29BD
P 9300 1100
F 0 "SW2" H 9300 1335 50  0000 C CNN
F 1 "SW_SPST" H 9300 1244 50  0000 C CNN
F 2 "dumbo_pcb:AS11CH-ON-OFF-SWITCH" H 9300 1100 50  0001 C CNN
F 3 "~" H 9300 1100 50  0001 C CNN
	1    9300 1100
	1    0    0    -1  
$EndComp
$Comp
L power:-BATT #PWR0102
U 1 1 5EBB3CBF
P 7700 1100
F 0 "#PWR0102" H 7700 950 50  0001 C CNN
F 1 "-BATT" V 7715 1227 50  0000 L CNN
F 2 "" H 7700 1100 50  0001 C CNN
F 3 "" H 7700 1100 50  0001 C CNN
	1    7700 1100
	0    -1   -1   0   
$EndComp
$Comp
L power:+BATT #PWR0103
U 1 1 5EBBCB53
P 9700 1100
F 0 "#PWR0103" H 9700 950 50  0001 C CNN
F 1 "+BATT" H 9715 1273 50  0000 C CNN
F 2 "" H 9700 1100 50  0001 C CNN
F 3 "" H 9700 1100 50  0001 C CNN
	1    9700 1100
	1    0    0    -1  
$EndComp
Wire Wire Line
	9700 1100 9500 1100
$Comp
L Connector_Generic:Conn_01x02 J2
U 1 1 5EC244A9
P 10425 2775
F 0 "J2" H 10505 2767 50  0000 L CNN
F 1 "BATTERY" H 10505 2676 50  0000 L CNN
F 2 "dumbo_pcb:JST_PH_S2B-PH-K_1x02_P2.00mm_Horizontal" H 10425 2775 50  0001 C CNN
F 3 "~" H 10425 2775 50  0001 C CNN
	1    10425 2775
	1    0    0    -1  
$EndComp
$Comp
L power:-BATT #PWR0117
U 1 1 5EC25C22
P 10225 2875
F 0 "#PWR0117" H 10225 2725 50  0001 C CNN
F 1 "-BATT" H 10240 3048 50  0000 C CNN
F 2 "" H 10225 2875 50  0001 C CNN
F 3 "" H 10225 2875 50  0001 C CNN
	1    10225 2875
	-1   0    0    1   
$EndComp
$Comp
L power:+BATT #PWR0118
U 1 1 5EC264A6
P 10225 2775
F 0 "#PWR0118" H 10225 2625 50  0001 C CNN
F 1 "+BATT" H 10240 2948 50  0000 C CNN
F 2 "" H 10225 2775 50  0001 C CNN
F 3 "" H 10225 2775 50  0001 C CNN
	1    10225 2775
	1    0    0    -1  
$EndComp
Wire Wire Line
	1500 1350 1750 1350
Connection ~ 1750 1350
Wire Wire Line
	1750 1350 1750 2300
$Comp
L Device:Jumper_NC_Small JP3
U 1 1 5EAB74AE
P 7925 4650
F 0 "JP3" H 7925 4556 50  0000 C CNN
F 1 "VCC" H 7925 4556 50  0001 C CNN
F 2 "dumbo_pcb:Jumper" H 7925 4650 50  0001 C CNN
F 3 "~" H 7925 4650 50  0001 C CNN
	1    7925 4650
	-1   0    0    1   
$EndComp
$EndSCHEMATC
